0000.002 (0) Opened log file at time: Thu, 23 Jul 2020 03:26:11 +0000 on http://gpa.9c0.myftpupload.com
0000.004 (0) UpdraftPlus WordPress backup plugin (https://updraftplus.com): 2.14.4.1 WP: 5.4.2 PHP: 7.3.12 (cgi-fcgi, Linux p3nlwpweb063.shr.prod.phx3.secureserver.net 4.4.216-1.el6.elrepo.x86_64 #1 SMP Wed Mar 11 09:29:51 EDT 2020 x86_64) MySQL: 5.7.26 WPLANG: en_CA Server: Apache safe_mode: 0 max_execution_time: 900 memory_limit: 256M (used: 12.5M | 2M) multisite: N openssl: OpenSSL 1.0.1e 11 Feb 2013 mcrypt: Y LANG:  ZipArchive::addFile: Y
0000.006 (0) Free space on disk containing Updraft's temporary directory: 369078107 MB
0000.012 (0) Tasks: Backup files: 1 (schedule: unset) Backup DB: 1 (schedule: unset)
0000.014 (0) Semaphore (fd, wp_861hw66a7j_options) being initialised
0000.026 (0) Requesting semaphore lock (fd) (apparently not via scheduler)
0000.030 (0) Set semaphore last lock (fd) time to 2020-07-23 03:26:11
0000.031 (0) Semaphore lock (fd) complete
0000.036 (0) Backup run: resumption=0, nonce=b56b34ce4264, begun at=1595474771 (0s ago), job type=backup
0000.038 (0) Scheduling a resumption (1) after 300 seconds (1595475071) in case this run gets aborted
0000.068 (0) Checking if we have a zip executable available
0000.069 (0) Testing: /usr/bin/zip
0000.087 (0) Output: zip warning: binziptest/test.zip not found or empty
0000.096 (0) Output: adding: binziptest/subdir1/	(in=0) (out=0) (stored 0%)
0000.097 (0) Output: adding: binziptest/subdir1/subdir2/	(in=0) (out=0) (stored 0%)
0000.098 (0) Output: adding: binziptest/subdir1/subdir2/test.html	(in=131) (out=107) (deflated 18%)
0000.099 (0) Output: total bytes=131, compressed=107 -> 18% savings
0000.120 (0) Output: adding: binziptest/subdir1/subdir2/test2.html	(in=138) (out=113) (deflated 18%)
0000.122 (0) Output: total bytes=269, compressed=220 -> 18% savings
0000.151 (0) Working binary zip found: /usr/bin/zip
0000.153 (0) Zip engine: found/will use a binary zip: /usr/bin/zip
0000.154 (0) Creation of backups of directories: beginning
0000.165 (0) Beginning creation of dump of plugins (split every: 100 MB)
0003.783 (0) Total entities for the zip file: 360 directories, 2468 files (0 skipped as non-modified), 37.6 MB
0003.789 (0) Adding batch to zip file (UpdraftPlus_BinZip): over 2.0 seconds have passed since the last write (0 MB, 1 (1) files added so far); re-opening (prior size: 0 KB)
0003.835 (0) backup_2020-07-23-0326_AWordPressSite_b56b34ce4264-plugins.zip.tmp: size is now: 0.10 MB
0003.984 (0) Zip: backup_2020-07-23-0326_AWordPressSite_b56b34ce4264-plugins.zip.tmp: 100 files added (on-disk size: 95.4 KB)
0004.127 (0) Zip: backup_2020-07-23-0326_AWordPressSite_b56b34ce4264-plugins.zip.tmp: 200 files added (on-disk size: 95.4 KB)
0004.270 (0) Zip: backup_2020-07-23-0326_AWordPressSite_b56b34ce4264-plugins.zip.tmp: 300 files added (on-disk size: 95.4 KB)
0004.384 (0) Zip: backup_2020-07-23-0326_AWordPressSite_b56b34ce4264-plugins.zip.tmp: 400 files added (on-disk size: 95.4 KB)
0004.505 (0) Zip: backup_2020-07-23-0326_AWordPressSite_b56b34ce4264-plugins.zip.tmp: 500 files added (on-disk size: 95.4 KB)
0004.508 (0) Adding batch to zip file (UpdraftPlus_BinZip): over 500 files added on this batch (9.7 MB, 2468 files batched, 501 (502) added so far); re-opening (prior size: 95.4 KB)
0007.465 (0) backup_2020-07-23-0326_AWordPressSite_b56b34ce4264-plugins.zip.tmp: size is now: 2.40 MB
0007.580 (0) Zip: backup_2020-07-23-0326_AWordPressSite_b56b34ce4264-plugins.zip.tmp: 600 files added (on-disk size: 2492.2 KB)
0007.704 (0) Zip: backup_2020-07-23-0326_AWordPressSite_b56b34ce4264-plugins.zip.tmp: 700 files added (on-disk size: 2492.2 KB)
0007.828 (0) Zip: backup_2020-07-23-0326_AWordPressSite_b56b34ce4264-plugins.zip.tmp: 800 files added (on-disk size: 2492.2 KB)
0007.950 (0) Zip: backup_2020-07-23-0326_AWordPressSite_b56b34ce4264-plugins.zip.tmp: 900 files added (on-disk size: 2492.2 KB)
0008.070 (0) Zip: backup_2020-07-23-0326_AWordPressSite_b56b34ce4264-plugins.zip.tmp: 1000 files added (on-disk size: 2492.2 KB)
0008.075 (0) Adding batch to zip file (UpdraftPlus_BinZip): over 500 files added on this batch (12.7 MB, 2468 files batched, 501 (1003) added so far); re-opening (prior size: 2492.2 KB)
0015.767 (0) backup_2020-07-23-0326_AWordPressSite_b56b34ce4264-plugins.zip.tmp: size is now: 7.20 MB
0015.889 (0) Zip: backup_2020-07-23-0326_AWordPressSite_b56b34ce4264-plugins.zip.tmp: 1100 files added (on-disk size: 7351.2 KB)
0016.006 (0) Zip: backup_2020-07-23-0326_AWordPressSite_b56b34ce4264-plugins.zip.tmp: 1200 files added (on-disk size: 7351.2 KB)
0016.126 (0) Zip: backup_2020-07-23-0326_AWordPressSite_b56b34ce4264-plugins.zip.tmp: 1300 files added (on-disk size: 7351.2 KB)
0016.245 (0) Zip: backup_2020-07-23-0326_AWordPressSite_b56b34ce4264-plugins.zip.tmp: 1400 files added (on-disk size: 7351.2 KB)
0016.366 (0) Zip: backup_2020-07-23-0326_AWordPressSite_b56b34ce4264-plugins.zip.tmp: 1500 files added (on-disk size: 7351.2 KB)
0016.374 (0) Adding batch to zip file (UpdraftPlus_BinZip): over 500 files added on this batch (11.3 MB, 2468 files batched, 501 (1504) added so far); re-opening (prior size: 7351.2 KB)
0017.407 (0) backup_2020-07-23-0326_AWordPressSite_b56b34ce4264-plugins.zip.tmp: size is now: 9.40 MB
0017.532 (0) Zip: backup_2020-07-23-0326_AWordPressSite_b56b34ce4264-plugins.zip.tmp: 1600 files added (on-disk size: 9638.9 KB)
0017.656 (0) Zip: backup_2020-07-23-0326_AWordPressSite_b56b34ce4264-plugins.zip.tmp: 1700 files added (on-disk size: 9638.9 KB)
0017.774 (0) Zip: backup_2020-07-23-0326_AWordPressSite_b56b34ce4264-plugins.zip.tmp: 1800 files added (on-disk size: 9638.9 KB)
0017.895 (0) Zip: backup_2020-07-23-0326_AWordPressSite_b56b34ce4264-plugins.zip.tmp: 1900 files added (on-disk size: 9638.9 KB)
0018.014 (0) Zip: backup_2020-07-23-0326_AWordPressSite_b56b34ce4264-plugins.zip.tmp: 2000 files added (on-disk size: 9638.9 KB)
0018.023 (0) Adding batch to zip file (UpdraftPlus_BinZip): over 500 files added on this batch (1.5 MB, 2468 files batched, 501 (2005) added so far); re-opening (prior size: 9638.9 KB)
0019.060 (0) Zip: backup_2020-07-23-0326_AWordPressSite_b56b34ce4264-plugins.zip.tmp: 2100 files added (on-disk size: 10227 KB)
0019.169 (0) Zip: backup_2020-07-23-0326_AWordPressSite_b56b34ce4264-plugins.zip.tmp: 2200 files added (on-disk size: 10227 KB)
0019.280 (0) Zip: backup_2020-07-23-0326_AWordPressSite_b56b34ce4264-plugins.zip.tmp: 2300 files added (on-disk size: 10227 KB)
0019.390 (0) Zip: backup_2020-07-23-0326_AWordPressSite_b56b34ce4264-plugins.zip.tmp: 2400 files added (on-disk size: 10227 KB)
0020.457 (0) Created plugins zip (0) - 11388 KB in 20.3 s (561.4 KB/s) (sha1: 1030cf31568500894756480965da915e749720db, sha256: 444c7d5ec9bfc1edc2fb66d0ee5e09b408a5f372098284c8d3e1edb15675fc2c)
0020.465 (0) Beginning creation of dump of themes (split every: 100 MB)
0020.822 (0) Total entities for the zip file: 31 directories, 133 files (0 skipped as non-modified), 1.1 MB
0020.938 (0) Zip: backup_2020-07-23-0326_AWordPressSite_b56b34ce4264-themes.zip.tmp: 100 files added (on-disk size: 0 KB)
0021.855 (0) backup_2020-07-23-0326_AWordPressSite_b56b34ce4264-themes.zip.tmp: size is now: 0.70 MB
0021.883 (0) Created themes zip (0) - 720 KB in 1.4 s (510.5 KB/s) (sha1: 0fcc4a19d3d68f1c26f882be068248e568814739, sha256: 43bab429d6660d09f66ed16db39517ee96b37425b02758ca3148606534050cef)
0021.891 (0) Exclusion option setting (uploads): backup*,*backups,backwpup*,wp-clone,snapshots
0021.892 (0) Looking for candidates to back up in: /var/www/wp-content/uploads
0021.894 (0) finding files: 2020: adding to list (1)
0021.895 (0) finding files: sucuri: adding to list (2)
0021.897 (0) Beginning creation of dump of uploads (split every: 100 MB)
0022.596 (0) Total entities for the zip file: 5 directories, 701 files (0 skipped as non-modified), 211.2 MB
0022.732 (0) Zip: backup_2020-07-23-0326_AWordPressSite_b56b34ce4264-uploads.zip.tmp: 100 files added (on-disk size: 0 KB)
0022.734 (0) Adding batch to zip file (UpdraftPlus_BinZip): over 25 MB added on this batch (25.4 MB, 701 files batched, 101 (101) added so far); re-opening (prior size: 0 KB)
0025.571 (0) backup_2020-07-23-0326_AWordPressSite_b56b34ce4264-uploads.zip.tmp: size is now: 25.40 MB
0025.574 (0) A useful amount of data was added after this amount of zip processing: 4.6 s (normalised: 4.6 s, rate: 5592.4 KB/s)
0025.578 (0) Performance is good - will increase the amount of data we attempt to batch (time=4.6460120677948, normalised_time=4.577618799609, max_time=-1, data points known=0, old_max_bytes=26214400, new_max_bytes=34359872)
0025.704 (0) Zip: backup_2020-07-23-0326_AWordPressSite_b56b34ce4264-uploads.zip.tmp: 200 files added (on-disk size: 26004.8 KB)
0025.739 (0) Adding batch to zip file (UpdraftPlus_BinZip): over 32.8 MB added on this batch (33.3 MB, 701 files batched, 122 (223) added so far); re-opening (prior size: 26004.8 KB)
0027.585 (0) backup_2020-07-23-0326_AWordPressSite_b56b34ce4264-uploads.zip.tmp: size is now: 58.70 MB
0027.589 (0) A useful amount of data was added after this amount of zip processing: 2.7 s (normalised: 2.6 s, rate: 12805.5 KB/s)
0027.591 (0) Performance is good - will increase the amount of data we attempt to batch (time=2.6604599952698, normalised_time=2.6203251731021, max_time=-1, data points known=0, old_max_bytes=34359872, new_max_bytes=78676965)
0027.686 (0) Zip: backup_2020-07-23-0326_AWordPressSite_b56b34ce4264-uploads.zip.tmp: 300 files added (on-disk size: 60085.3 KB)
0027.729 (0) Adding batch to zip file (UpdraftPlus_BinZip): possibly approaching split limit (38.4 MB, 115 (338) files added so far); last ratio: 1; re-opening (prior size: 60085.3 KB)
0030.087 (0) backup_2020-07-23-0326_AWordPressSite_b56b34ce4264-uploads.zip.tmp: size is now: 97.10 MB
0030.089 (0) Zip size is at/near split limit (97.1 MB / 100 MB) - bumping index (from: 0)
0032.071 (0) Created uploads zip (0) - 99386.7 KB in 8.2 s (12139.1 KB/s) (checksums: sha1: cbe12dd2e9f72ecffb089db1e7756aa8edd62c6e, sha256: 0c015c8185e230d6c1ef93598c2d8d0b5f1712c27ff20d5f9b24b69e914f3ec8)
0032.161 (0) Zip: backup_2020-07-23-0326_AWordPressSite_b56b34ce4264-uploads2.zip.tmp: 400 files added (on-disk size: 0 KB)
0032.280 (0) Zip: backup_2020-07-23-0326_AWordPressSite_b56b34ce4264-uploads2.zip.tmp: 500 files added (on-disk size: 0 KB)
0032.371 (0) Adding batch to zip file (UpdraftPlus_BinZip): over 75 MB added on this batch (75.1 MB, 701 files batched, 241 (579) added so far); re-opening (prior size: 0 KB)
0035.890 (0) backup_2020-07-23-0326_AWordPressSite_b56b34ce4264-uploads2.zip.tmp: size is now: 75.20 MB
0035.893 (0) A useful amount of data was added after this amount of zip processing: 6 s (normalised: 6 s, rate: 12898.5 KB/s)
0035.895 (0) Performance is good - will increase the amount of data we attempt to batch (time=5.9648530483246, normalised_time=5.956717061227, max_time=-1, data points known=0, old_max_bytes=78676965, new_max_bytes=79248650)
0035.920 (0) Zip: backup_2020-07-23-0326_AWordPressSite_b56b34ce4264-uploads2.zip.tmp: 600 files added (on-disk size: 76983.1 KB)
0035.957 (0) Adding batch to zip file (UpdraftPlus_BinZip): possibly approaching split limit (22.8 MB, 54 (633) files added so far); last ratio: 1; re-opening (prior size: 76983.1 KB)
0038.382 (0) backup_2020-07-23-0326_AWordPressSite_b56b34ce4264-uploads2.zip.tmp: size is now: 98.00 MB
0038.385 (0) Zip size is at/near split limit (98 MB / 100 MB) - bumping index (from: 1)
0040.219 (0) Created uploads zip (1) - 100369.6 KB in 6.3 s (15898.4 KB/s) (checksums: sha1: c84d4534f9b03982f562ce4cc55fa810be578d11, sha256: 09739021c35b20eb5d87385ff8ae123a79f453fbf1f6430cfb33289cbcc7ea08)
0040.302 (0) Zip: backup_2020-07-23-0326_AWordPressSite_b56b34ce4264-uploads3.zip.tmp: 700 files added (on-disk size: 0 KB)
0041.073 (0) backup_2020-07-23-0326_AWordPressSite_b56b34ce4264-uploads3.zip.tmp: size is now: 16.10 MB
0041.382 (0) Created uploads zip (2) - 16536.9 KB in 1.2 s (14242.7 KB/s) (sha1: 0f222c20fc584f9c7235410040f4a1ce8b59bd7e, sha256: b02728b185ef9f826a9083f938dd99954d1ab9ddc792b2d6e3ee5190f4df2018)
0041.390 (0) Beginning backup of other directories found in the content directory (index: 0)
0041.391 (0) Exclusion option setting (others): upgrade,cache,updraft,backup*,*backups,mysql.sql,debug.log
0041.392 (0) Looking for candidates to back up in: /var/www/wp-content
0041.394 (0) finding files: updraft: skipping: this is the updraft directory
0041.395 (0) finding files: mu-plugins: adding to list (1)
0041.396 (0) finding files: object-cache.php: adding to list (2)
0041.397 (0) finding files: index.php: adding to list (3)
0041.397 (0) finding files: themes: skipping: this is the themes directory
0041.398 (0) finding files: upgrade: skipping: excluded by options
0041.399 (0) finding files: plugins: skipping: this is the plugins directory
0041.400 (0) finding files: languages: adding to list (4)
0041.401 (0) finding files: uploads: skipping: this is the uploads directory
0041.488 (0) Total entities for the zip file: 99 directories, 623 files (0 skipped as non-modified), 7 MB
0041.611 (0) Zip: backup_2020-07-23-0326_AWordPressSite_b56b34ce4264-others.zip.tmp: 100 files added (on-disk size: 0 KB)
0041.730 (0) Zip: backup_2020-07-23-0326_AWordPressSite_b56b34ce4264-others.zip.tmp: 200 files added (on-disk size: 0 KB)
0041.848 (0) Zip: backup_2020-07-23-0326_AWordPressSite_b56b34ce4264-others.zip.tmp: 300 files added (on-disk size: 0 KB)
0041.976 (0) Zip: backup_2020-07-23-0326_AWordPressSite_b56b34ce4264-others.zip.tmp: 400 files added (on-disk size: 0 KB)
0042.113 (0) Zip: backup_2020-07-23-0326_AWordPressSite_b56b34ce4264-others.zip.tmp: 500 files added (on-disk size: 0 KB)
0042.116 (0) Adding batch to zip file (UpdraftPlus_BinZip): over 500 files added on this batch (3.3 MB, 623 files batched, 501 (501) added so far); re-opening (prior size: 0 KB)
0042.347 (0) backup_2020-07-23-0326_AWordPressSite_b56b34ce4264-others.zip.tmp: size is now: 1.00 MB
0042.472 (0) Zip: backup_2020-07-23-0326_AWordPressSite_b56b34ce4264-others.zip.tmp: 600 files added (on-disk size: 1051.1 KB)
0043.221 (0) backup_2020-07-23-0326_AWordPressSite_b56b34ce4264-others.zip.tmp: size is now: 2.00 MB
0043.288 (0) Created others zip (0) - 2045.6 KB in 1.9 s (1088.2 KB/s) (sha1: 71b7659acc5acd115434f13cca012937f6bab2b6, sha256: 6f3a0277d4dd354db7fd472983a2a147354500ce24584c7f25b3d221c0c692c6)
0043.299 (0) Saving backup status to database (elements: 10)
0043.302 (0) Beginning creation of database dump (WordPress DB)
0043.309 (0) Testing: /usr/bin/mysqldump
0043.356 (0) Binary mysqldump: error (code: 2)
0043.397 (0) Table wp_861hw66a7j_options: Total expected rows (approximate): 215
0043.439 (0) Table wp_861hw66a7j_options: Total rows added: 217 in 0.04 seconds
0043.445 (0) Table wp_861hw66a7j_options: finishing file (backup_2020-07-23-0326_AWordPressSite_b56b34ce4264-db-table-wp_861hw66a7j_options.table.gz - 127.5 KB)
0043.454 (0) Table wp_861hw66a7j_users: Total expected rows (approximate): 0
0043.456 (0) Table wp_861hw66a7j_users: Total rows added: 1 in 0.00 seconds
0043.459 (0) Table wp_861hw66a7j_users: finishing file (backup_2020-07-23-0326_AWordPressSite_b56b34ce4264-db-table-wp_861hw66a7j_users.table.gz - 0.6 KB)
0043.467 (0) Table wp_861hw66a7j_usermeta: Total expected rows (approximate): 18
0043.470 (0) Table wp_861hw66a7j_usermeta: Total rows added: 25 in 0.00 seconds
0043.474 (0) Table wp_861hw66a7j_usermeta: finishing file (backup_2020-07-23-0326_AWordPressSite_b56b34ce4264-db-table-wp_861hw66a7j_usermeta.table.gz - 1.2 KB)
0043.484 (0) Table wp_861hw66a7j_commentmeta: Total expected rows (approximate): 0
0043.487 (0) Table wp_861hw66a7j_commentmeta: Total rows added: 0 in 0.00 seconds
0043.490 (0) Table wp_861hw66a7j_commentmeta: finishing file (backup_2020-07-23-0326_AWordPressSite_b56b34ce4264-db-table-wp_861hw66a7j_commentmeta.table.gz - 0.4 KB)
0043.500 (0) Table wp_861hw66a7j_comments: Total expected rows (approximate): 0
0043.503 (0) Table wp_861hw66a7j_comments: Total rows added: 1 in 0.00 seconds
0043.506 (0) Table wp_861hw66a7j_comments: finishing file (backup_2020-07-23-0326_AWordPressSite_b56b34ce4264-db-table-wp_861hw66a7j_comments.table.gz - 0.7 KB)
0043.515 (0) Table wp_861hw66a7j_links: Total expected rows (approximate): 0
0043.518 (0) Table wp_861hw66a7j_links: Total rows added: 0 in 0.00 seconds
0043.521 (0) Table wp_861hw66a7j_links: finishing file (backup_2020-07-23-0326_AWordPressSite_b56b34ce4264-db-table-wp_861hw66a7j_links.table.gz - 0.5 KB)
0043.531 (0) Table wp_861hw66a7j_postmeta: Total expected rows (approximate): 487
0043.546 (0) Table wp_861hw66a7j_postmeta: Total rows added: 635 in 0.01 seconds
0043.550 (0) Table wp_861hw66a7j_postmeta: finishing file (backup_2020-07-23-0326_AWordPressSite_b56b34ce4264-db-table-wp_861hw66a7j_postmeta.table.gz - 15.6 KB)
0043.561 (0) Table wp_861hw66a7j_posts: Total expected rows (approximate): 197
0043.590 (0) Table wp_861hw66a7j_posts: Total rows added: 287 in 0.03 seconds
0043.595 (0) Table wp_861hw66a7j_posts: finishing file (backup_2020-07-23-0326_AWordPressSite_b56b34ce4264-db-table-wp_861hw66a7j_posts.table.gz - 38 KB)
0043.605 (0) Table wp_861hw66a7j_term_relationships: Total expected rows (approximate): 44
0043.608 (0) Table wp_861hw66a7j_term_relationships: Total rows added: 47 in 0.00 seconds
0043.611 (0) Table wp_861hw66a7j_term_relationships: finishing file (backup_2020-07-23-0326_AWordPressSite_b56b34ce4264-db-table-wp_861hw66a7j_term_relationships.table.gz - 0.5 KB)
0043.621 (0) Table wp_861hw66a7j_term_taxonomy: Total expected rows (approximate): 9
0043.624 (0) Table wp_861hw66a7j_term_taxonomy: Total rows added: 12 in 0.00 seconds
0043.627 (0) Table wp_861hw66a7j_term_taxonomy: finishing file (backup_2020-07-23-0326_AWordPressSite_b56b34ce4264-db-table-wp_861hw66a7j_term_taxonomy.table.gz - 0.6 KB)
0043.636 (0) Table wp_861hw66a7j_termmeta: Total expected rows (approximate): 0
0043.638 (0) Table wp_861hw66a7j_termmeta: Total rows added: 0 in 0.00 seconds
0043.641 (0) Table wp_861hw66a7j_termmeta: finishing file (backup_2020-07-23-0326_AWordPressSite_b56b34ce4264-db-table-wp_861hw66a7j_termmeta.table.gz - 0.4 KB)
0043.650 (0) Table wp_861hw66a7j_terms: Total expected rows (approximate): 9
0043.652 (0) Table wp_861hw66a7j_terms: Total rows added: 12 in 0.00 seconds
0043.655 (0) Table wp_861hw66a7j_terms: finishing file (backup_2020-07-23-0326_AWordPressSite_b56b34ce4264-db-table-wp_861hw66a7j_terms.table.gz - 0.6 KB)
0043.665 (0) Table wp_861hw66a7j_redirection_404: Total expected rows (approximate): 0
0043.667 (0) Table wp_861hw66a7j_redirection_404: Total rows added: 0 in 0.00 seconds
0043.671 (0) Table wp_861hw66a7j_redirection_404: finishing file (backup_2020-07-23-0326_AWordPressSite_b56b34ce4264-db-table-wp_861hw66a7j_redirection_404.table.gz - 0.4 KB)
0043.681 (0) Table wp_861hw66a7j_redirection_groups: Total expected rows (approximate): 2
0043.684 (0) Table wp_861hw66a7j_redirection_groups: Total rows added: 2 in 0.00 seconds
0043.688 (0) Table wp_861hw66a7j_redirection_groups: finishing file (backup_2020-07-23-0326_AWordPressSite_b56b34ce4264-db-table-wp_861hw66a7j_redirection_groups.table.gz - 0.5 KB)
0043.697 (0) Table wp_861hw66a7j_redirection_items: Total expected rows (approximate): 0
0043.699 (0) Table wp_861hw66a7j_redirection_items: Total rows added: 1 in 0.00 seconds
0043.703 (0) Table wp_861hw66a7j_redirection_items: finishing file (backup_2020-07-23-0326_AWordPressSite_b56b34ce4264-db-table-wp_861hw66a7j_redirection_items.table.gz - 0.6 KB)
0043.712 (0) Table wp_861hw66a7j_redirection_logs: Total expected rows (approximate): 0
0043.714 (0) Table wp_861hw66a7j_redirection_logs: Total rows added: 0 in 0.00 seconds
0043.718 (0) Table wp_861hw66a7j_redirection_logs: finishing file (backup_2020-07-23-0326_AWordPressSite_b56b34ce4264-db-table-wp_861hw66a7j_redirection_logs.table.gz - 0.4 KB)
0043.726 (0) backup_2020-07-23-0326_AWordPressSite_b56b34ce4264-db-table-wp_861hw66a7j_options.table.gz (1/16): adding to final database dump
0043.758 (0) backup_2020-07-23-0326_AWordPressSite_b56b34ce4264-db-table-wp_861hw66a7j_users.table.gz (2/16): adding to final database dump
0043.762 (0) backup_2020-07-23-0326_AWordPressSite_b56b34ce4264-db-table-wp_861hw66a7j_usermeta.table.gz (3/16): adding to final database dump
0043.766 (0) backup_2020-07-23-0326_AWordPressSite_b56b34ce4264-db-table-wp_861hw66a7j_commentmeta.table.gz (4/16): adding to final database dump
0043.769 (0) backup_2020-07-23-0326_AWordPressSite_b56b34ce4264-db-table-wp_861hw66a7j_comments.table.gz (5/16): adding to final database dump
0043.773 (0) backup_2020-07-23-0326_AWordPressSite_b56b34ce4264-db-table-wp_861hw66a7j_links.table.gz (6/16): adding to final database dump
0043.776 (0) backup_2020-07-23-0326_AWordPressSite_b56b34ce4264-db-table-wp_861hw66a7j_postmeta.table.gz (7/16): adding to final database dump
0043.786 (0) backup_2020-07-23-0326_AWordPressSite_b56b34ce4264-db-table-wp_861hw66a7j_posts.table.gz (8/16): adding to final database dump
0043.802 (0) backup_2020-07-23-0326_AWordPressSite_b56b34ce4264-db-table-wp_861hw66a7j_term_relationships.table.gz (9/16): adding to final database dump
0043.806 (0) backup_2020-07-23-0326_AWordPressSite_b56b34ce4264-db-table-wp_861hw66a7j_term_taxonomy.table.gz (10/16): adding to final database dump
0043.809 (0) backup_2020-07-23-0326_AWordPressSite_b56b34ce4264-db-table-wp_861hw66a7j_termmeta.table.gz (11/16): adding to final database dump
0043.813 (0) backup_2020-07-23-0326_AWordPressSite_b56b34ce4264-db-table-wp_861hw66a7j_terms.table.gz (12/16): adding to final database dump
0043.816 (0) backup_2020-07-23-0326_AWordPressSite_b56b34ce4264-db-table-wp_861hw66a7j_redirection_404.table.gz (13/16): adding to final database dump
0043.819 (0) backup_2020-07-23-0326_AWordPressSite_b56b34ce4264-db-table-wp_861hw66a7j_redirection_groups.table.gz (14/16): adding to final database dump
0043.823 (0) backup_2020-07-23-0326_AWordPressSite_b56b34ce4264-db-table-wp_861hw66a7j_redirection_items.table.gz (15/16): adding to final database dump
0043.827 (0) backup_2020-07-23-0326_AWordPressSite_b56b34ce4264-db-table-wp_861hw66a7j_redirection_logs.table.gz (16/16): adding to final database dump
0043.830 (0) backup_2020-07-23-0326_AWordPressSite_b56b34ce4264-db.gz: finished writing out complete database file (0 KB)
0043.872 (0) Total database tables backed up: 16 (backup_2020-07-23-0326_AWordPressSite_b56b34ce4264-db.gz, size: 189424, sha256)
0043.880 (0) backup_2020-07-23-0326_AWordPressSite_b56b34ce4264-plugins.zip: plugins: This file has not yet been successfully uploaded: will queue
0043.881 (0) backup_2020-07-23-0326_AWordPressSite_b56b34ce4264-themes.zip: themes: This file has not yet been successfully uploaded: will queue
0043.882 (0) backup_2020-07-23-0326_AWordPressSite_b56b34ce4264-uploads.zip: uploads: This file has not yet been successfully uploaded: will queue
0043.883 (0) backup_2020-07-23-0326_AWordPressSite_b56b34ce4264-uploads2.zip: uploads: This file has not yet been successfully uploaded: will queue
0043.884 (0) backup_2020-07-23-0326_AWordPressSite_b56b34ce4264-uploads3.zip: uploads: This file has not yet been successfully uploaded: will queue
0043.885 (0) backup_2020-07-23-0326_AWordPressSite_b56b34ce4264-others.zip: others: This file has not yet been successfully uploaded: will queue
0043.886 (0) backup_2020-07-23-0326_AWordPressSite_b56b34ce4264-db.gz: db: This file has not yet been successfully uploaded: will queue
0043.887 (0) Saving backup history. Total backup size: 225.2 MB
0043.890 (0) Requesting upload of the files that have not yet been successfully uploaded (7)
0043.894 (0) Cloud backup selection (1/1): remotesend with instance (1/1) (last)
0043.895 (0) Beginning dispatch of backup to remote (remotesend)
0043.897 (0) remotesend upload : attempt: backup_2020-07-23-0326_AWordPressSite_b56b34ce4264-plugins.zip
0044.477 (0) backup_2020-07-23-0326_AWordPressSite_b56b34ce4264-plugins.zip: existing size: 0
0044.480 (0) Remote send upload: backup_2020-07-23-0326_AWordPressSite_b56b34ce4264-plugins.zip (chunks: 6, of size: 2097152) -> remotesend://http://obd.490.myftpupload.com/backup_2020-07-23-0326_AWordPressSite_b56b34ce4264-plugins.zip (0)
0044.639 (0) PHP event: code E_NOTICE: Array to string conversion (line 198, wp-content/plugins/updraftplus/methods/remotesend.php)
0044.640 (0) Returned WP_Error: code=unexpected_http_code (Array) - reducing chunk size to: 1048576
0044.642 (0) Re-trying with new chunk size: 1048576
0044.643 (0) Remote send upload: backup_2020-07-23-0326_AWordPressSite_b56b34ce4264-plugins.zip (chunks: 12, of size: 1048576) -> remotesend://http://obd.490.myftpupload.com/backup_2020-07-23-0326_AWordPressSite_b56b34ce4264-plugins.zip (0)
0044.801 (0) PHP event: code E_NOTICE: Array to string conversion (line 198, wp-content/plugins/updraftplus/methods/remotesend.php)
0044.802 (0) Returned WP_Error: code=unexpected_http_code (Array) - reducing chunk size to: 524288
0044.803 (0) Re-trying with new chunk size: 524288
0044.804 (0) Remote send upload: backup_2020-07-23-0326_AWordPressSite_b56b34ce4264-plugins.zip (chunks: 23, of size: 524288) -> remotesend://http://obd.490.myftpupload.com/backup_2020-07-23-0326_AWordPressSite_b56b34ce4264-plugins.zip (0)
0045.334 (0) Remotesend chunked upload: 4.5 % uploaded (1)
0045.866 (0) Remotesend chunked upload: 9 % uploaded (2)
0046.366 (0) Remotesend chunked upload: 13.5 % uploaded (3)
0046.904 (0) Remotesend chunked upload: 18 % uploaded (4)
0047.446 (0) Remotesend chunked upload: 22.5 % uploaded (5)
0047.951 (0) Remotesend chunked upload: 27 % uploaded (6)
0048.442 (0) Remotesend chunked upload: 31.5 % uploaded (7)
0049.023 (0) Remotesend chunked upload: 36 % uploaded (8)
0050.040 (0) Remotesend chunked upload: 40.5 % uploaded (9)
0050.575 (0) Remotesend chunked upload: 45 % uploaded (10)
0051.070 (0) Remotesend chunked upload: 49.5 % uploaded (11)
0051.603 (0) Remotesend chunked upload: 54 % uploaded (12)
0052.152 (0) Remotesend chunked upload: 58.4 % uploaded (13)
0052.626 (0) Remotesend chunked upload: 62.9 % uploaded (14)
0053.332 (0) Remotesend chunked upload: 67.4 % uploaded (15)
0053.834 (0) Remotesend chunked upload: 71.9 % uploaded (16)
0054.334 (0) Remotesend chunked upload: 76.4 % uploaded (17)
0054.864 (0) Remotesend chunked upload: 80.9 % uploaded (18)
0055.379 (0) Remotesend chunked upload: 85.4 % uploaded (19)
0055.900 (0) Remotesend chunked upload: 89.9 % uploaded (20)
0056.395 (0) Remotesend chunked upload: 94.4 % uploaded (21)
0056.915 (0) Remotesend chunked upload: 98.9 % uploaded (22)
0057.329 (0) Remotesend chunked upload: 100 % uploaded (23)
0057.332 (0) Remote send upload: success
0057.335 (0) Recording as successfully uploaded: backup_2020-07-23-0326_AWordPressSite_b56b34ce4264-plugins.zip (cb4bb01f0c0c77975ef91100c8556685)
0057.340 (0) Deleting local file: backup_2020-07-23-0326_AWordPressSite_b56b34ce4264-plugins.zip: skipped: user has unchecked updraft_delete_local option
0057.341 (0) remotesend upload : attempt: backup_2020-07-23-0326_AWordPressSite_b56b34ce4264-themes.zip
0057.663 (0) backup_2020-07-23-0326_AWordPressSite_b56b34ce4264-themes.zip: existing size: 0
0057.665 (0) Remote send upload: backup_2020-07-23-0326_AWordPressSite_b56b34ce4264-themes.zip (chunks: 2, of size: 524288) -> remotesend://http://obd.490.myftpupload.com/backup_2020-07-23-0326_AWordPressSite_b56b34ce4264-themes.zip (0)
0058.171 (0) Remotesend chunked upload: 71.1 % uploaded (1)
0058.557 (0) Remotesend chunked upload: 100 % uploaded (2)
0058.560 (0) Remote send upload: success
0058.563 (0) Recording as successfully uploaded: backup_2020-07-23-0326_AWordPressSite_b56b34ce4264-themes.zip (7af2f99ba7d3aa927b8d53aa77df1baf)
0058.567 (0) Deleting local file: backup_2020-07-23-0326_AWordPressSite_b56b34ce4264-themes.zip: skipped: user has unchecked updraft_delete_local option
0058.568 (0) remotesend upload : attempt: backup_2020-07-23-0326_AWordPressSite_b56b34ce4264-uploads.zip
0058.851 (0) backup_2020-07-23-0326_AWordPressSite_b56b34ce4264-uploads.zip: existing size: 0
0058.853 (0) Remote send upload: backup_2020-07-23-0326_AWordPressSite_b56b34ce4264-uploads.zip (chunks: 195, of size: 524288) -> remotesend://http://obd.490.myftpupload.com/backup_2020-07-23-0326_AWordPressSite_b56b34ce4264-uploads.zip (0)
0059.394 (0) Remotesend chunked upload: 0.5 % uploaded (1)
0059.978 (0) Remotesend chunked upload: 1 % uploaded (2)
0060.519 (0) Remotesend chunked upload: 1.5 % uploaded (3)
0061.027 (0) Remotesend chunked upload: 2.1 % uploaded (4)
0061.530 (0) Remotesend chunked upload: 2.6 % uploaded (5)
0062.028 (0) Remotesend chunked upload: 3.1 % uploaded (6)
0062.531 (0) Remotesend chunked upload: 3.6 % uploaded (7)
0063.026 (0) Remotesend chunked upload: 4.1 % uploaded (8)
0063.599 (0) Remotesend chunked upload: 4.6 % uploaded (9)
0064.151 (0) Remotesend chunked upload: 5.2 % uploaded (10)
0064.677 (0) Remotesend chunked upload: 5.7 % uploaded (11)
0065.182 (0) Remotesend chunked upload: 6.2 % uploaded (12)
0065.693 (0) Remotesend chunked upload: 6.7 % uploaded (13)
0066.196 (0) Remotesend chunked upload: 7.2 % uploaded (14)
0066.789 (0) Remotesend chunked upload: 7.7 % uploaded (15)
0067.345 (0) Remotesend chunked upload: 8.2 % uploaded (16)
0067.869 (0) Remotesend chunked upload: 8.8 % uploaded (17)
0068.374 (0) Remotesend chunked upload: 9.3 % uploaded (18)
0068.886 (0) Remotesend chunked upload: 9.8 % uploaded (19)
0069.400 (0) Remotesend chunked upload: 10.3 % uploaded (20)
0069.939 (0) Remotesend chunked upload: 10.8 % uploaded (21)
0070.503 (0) Remotesend chunked upload: 11.3 % uploaded (22)
0071.009 (0) Remotesend chunked upload: 11.8 % uploaded (23)
0071.549 (0) Remotesend chunked upload: 12.4 % uploaded (24)
0072.080 (0) Remotesend chunked upload: 12.9 % uploaded (25)
0072.587 (0) Remotesend chunked upload: 13.4 % uploaded (26)
0073.144 (0) Remotesend chunked upload: 13.9 % uploaded (27)
0073.717 (0) Remotesend chunked upload: 14.4 % uploaded (28)
0074.295 (0) Remotesend chunked upload: 14.9 % uploaded (29)
0075.226 (0) Remotesend chunked upload: 15.5 % uploaded (30)
0075.747 (0) Remotesend chunked upload: 16 % uploaded (31)
0076.358 (0) Remotesend chunked upload: 16.5 % uploaded (32)
0076.852 (0) Remotesend chunked upload: 17 % uploaded (33)
0077.346 (0) Remotesend chunked upload: 17.5 % uploaded (34)
0077.871 (0) Remotesend chunked upload: 18 % uploaded (35)
0078.607 (0) Remotesend chunked upload: 18.5 % uploaded (36)
0079.724 (0) Remotesend chunked upload: 19.1 % uploaded (37)
0080.259 (0) Remotesend chunked upload: 19.6 % uploaded (38)
0080.751 (0) Remotesend chunked upload: 20.1 % uploaded (39)
0081.276 (0) Remotesend chunked upload: 20.6 % uploaded (40)
0082.242 (0) Remotesend chunked upload: 21.1 % uploaded (41)
0082.782 (0) Remotesend chunked upload: 21.6 % uploaded (42)
0083.380 (0) Remotesend chunked upload: 22.2 % uploaded (43)
0083.890 (0) Remotesend chunked upload: 22.7 % uploaded (44)
0084.463 (0) Remotesend chunked upload: 23.2 % uploaded (45)
0084.972 (0) Remotesend chunked upload: 23.7 % uploaded (46)
0085.509 (0) Remotesend chunked upload: 24.2 % uploaded (47)
0086.057 (0) Remotesend chunked upload: 24.7 % uploaded (48)
0086.558 (0) Remotesend chunked upload: 25.2 % uploaded (49)
0087.046 (0) Remotesend chunked upload: 25.8 % uploaded (50)
0087.610 (0) Remotesend chunked upload: 26.3 % uploaded (51)
0088.105 (0) Remotesend chunked upload: 26.8 % uploaded (52)
0088.607 (0) Remotesend chunked upload: 27.3 % uploaded (53)
0089.108 (0) Remotesend chunked upload: 27.8 % uploaded (54)
0089.609 (0) Remotesend chunked upload: 28.3 % uploaded (55)
0090.113 (0) Remotesend chunked upload: 28.8 % uploaded (56)
0090.628 (0) Remotesend chunked upload: 29.4 % uploaded (57)
0091.158 (0) Remotesend chunked upload: 29.9 % uploaded (58)
0091.667 (0) Remotesend chunked upload: 30.4 % uploaded (59)
0092.157 (0) Remotesend chunked upload: 30.9 % uploaded (60)
0092.703 (0) Remotesend chunked upload: 31.4 % uploaded (61)
0093.264 (0) Remotesend chunked upload: 31.9 % uploaded (62)
0093.759 (0) Remotesend chunked upload: 32.5 % uploaded (63)
0094.260 (0) Remotesend chunked upload: 33 % uploaded (64)
0094.828 (0) Remotesend chunked upload: 33.5 % uploaded (65)
0095.352 (0) Remotesend chunked upload: 34 % uploaded (66)
0095.862 (0) Remotesend chunked upload: 34.5 % uploaded (67)
0096.416 (0) Remotesend chunked upload: 35 % uploaded (68)
0096.971 (0) Remotesend chunked upload: 35.5 % uploaded (69)
0097.475 (0) Remotesend chunked upload: 36.1 % uploaded (70)
0098.061 (0) Remotesend chunked upload: 36.6 % uploaded (71)
0098.634 (0) Remotesend chunked upload: 37.1 % uploaded (72)
0099.176 (0) Remotesend chunked upload: 37.6 % uploaded (73)
0099.725 (0) Remotesend chunked upload: 38.1 % uploaded (74)
0100.275 (0) Remotesend chunked upload: 38.6 % uploaded (75)
0100.788 (0) Remotesend chunked upload: 39.2 % uploaded (76)
0101.355 (0) Remotesend chunked upload: 39.7 % uploaded (77)
0101.911 (0) Remotesend chunked upload: 40.2 % uploaded (78)
0102.458 (0) Remotesend chunked upload: 40.7 % uploaded (79)
0102.998 (0) Remotesend chunked upload: 41.2 % uploaded (80)
0103.120 (0) Returned WP_Error: code=unexpected_http_code - reducing chunk size to: 262144 and then scheduling resumption/aborting
0103.122 (0) Rescheduling resumption 1: moving to 120 seconds from now (1595474994)
0259.425 (1) Opened log file at time: Thu, 23 Jul 2020 03:30:30 +0000 on http://gpa.9c0.myftpupload.com
0259.426 (1) UpdraftPlus WordPress backup plugin (https://updraftplus.com): 2.14.4.1 WP: 5.4.2 PHP: 7.3.12 (cgi-fcgi, Linux p3nlwpweb063.shr.prod.phx3.secureserver.net 4.4.216-1.el6.elrepo.x86_64 #1 SMP Wed Mar 11 09:29:51 EDT 2020 x86_64) MySQL: 5.7.26 WPLANG: en_CA Server: Apache safe_mode: 0 max_execution_time: 900 memory_limit: 256M (used: 12.6M | 2M) multisite: N openssl: OpenSSL 1.0.1e 11 Feb 2013 mcrypt: Y LANG:  ZipArchive::addFile: Y
0259.428 (1) Free space on disk containing Updraft's temporary directory: 369067330 MB
0259.431 (1) Backup run: resumption=1, nonce=b56b34ce4264, begun at=1595474771 (259s ago), job type=backup, previous check-in=103.1s
0259.434 (1) Scheduling a resumption (2) after 300 seconds (1595475330) in case this run gets aborted
0259.466 (1) Checking if we have a zip executable available
0259.469 (1) Zip engine: found/will use a binary zip: /usr/bin/zip
0259.471 (1) Creation of backups of directories: already finished
0259.482 (1) Saving backup status to database (elements: 10)
0259.494 (1) Database dump (WordPress DB): Creation was completed already
0259.500 (1) backup_2020-07-23-0326_AWordPressSite_b56b34ce4264-plugins.zip: plugins: This file has already been successfully uploaded
0259.502 (1) backup_2020-07-23-0326_AWordPressSite_b56b34ce4264-themes.zip: themes: This file has already been successfully uploaded
0259.503 (1) backup_2020-07-23-0326_AWordPressSite_b56b34ce4264-uploads.zip: uploads: This file has not yet been successfully uploaded: will queue
0259.504 (1) backup_2020-07-23-0326_AWordPressSite_b56b34ce4264-uploads2.zip: uploads: This file has not yet been successfully uploaded: will queue
0259.505 (1) backup_2020-07-23-0326_AWordPressSite_b56b34ce4264-uploads3.zip: uploads: This file has not yet been successfully uploaded: will queue
0259.506 (1) backup_2020-07-23-0326_AWordPressSite_b56b34ce4264-others.zip: others: This file has not yet been successfully uploaded: will queue
0259.507 (1) backup_2020-07-23-0326_AWordPressSite_b56b34ce4264-db.gz: db: This file has not yet been successfully uploaded: will queue
0259.508 (1) Saving backup history. Total backup size: 225.2 MB
0259.519 (1) Requesting upload of the files that have not yet been successfully uploaded (5)
0259.521 (1) Cloud backup selection (1/1): remotesend with instance (1/1) (last)
0259.522 (1) Beginning dispatch of backup to remote (remotesend)
0259.524 (1) remotesend upload : attempt: backup_2020-07-23-0326_AWordPressSite_b56b34ce4264-uploads.zip
0259.889 (1) backup_2020-07-23-0326_AWordPressSite_b56b34ce4264-uploads.zip: existing size: 41943040
0259.894 (1) Remote send upload: backup_2020-07-23-0326_AWordPressSite_b56b34ce4264-uploads.zip (chunks: 389, of size: 262144) -> remotesend://http://obd.490.myftpupload.com/backup_2020-07-23-0326_AWordPressSite_b56b34ce4264-uploads.zip (41943040)
0261.117 (1) Remotesend chunked upload: 41.5 % uploaded (161)
0261.531 (1) Remotesend chunked upload: 41.7 % uploaded (162)
0261.961 (1) Remotesend chunked upload: 42 % uploaded (163)
0262.357 (1) Remotesend chunked upload: 42.2 % uploaded (164)
0262.757 (1) Remotesend chunked upload: 42.5 % uploaded (165)
0263.249 (1) Remotesend chunked upload: 42.8 % uploaded (166)
0263.878 (1) Remotesend chunked upload: 43 % uploaded (167)
0264.298 (1) Remotesend chunked upload: 43.3 % uploaded (168)
0264.740 (1) Remotesend chunked upload: 43.5 % uploaded (169)
0265.154 (1) Remotesend chunked upload: 43.8 % uploaded (170)
0265.576 (1) Remotesend chunked upload: 44 % uploaded (171)
0265.961 (1) Remotesend chunked upload: 44.3 % uploaded (172)
0266.358 (1) Remotesend chunked upload: 44.6 % uploaded (173)
0266.821 (1) Remotesend chunked upload: 44.8 % uploaded (174)
0267.265 (1) Remotesend chunked upload: 45.1 % uploaded (175)
0267.724 (1) Remotesend chunked upload: 45.3 % uploaded (176)
0268.187 (1) Remotesend chunked upload: 45.6 % uploaded (177)
0268.696 (1) Remotesend chunked upload: 45.8 % uploaded (178)
0269.203 (1) Remotesend chunked upload: 46.1 % uploaded (179)
0269.639 (1) Remotesend chunked upload: 46.4 % uploaded (180)
0270.095 (1) Remotesend chunked upload: 46.6 % uploaded (181)
0270.546 (1) Remotesend chunked upload: 46.9 % uploaded (182)
0270.947 (1) Remotesend chunked upload: 47.1 % uploaded (183)
0271.371 (1) Remotesend chunked upload: 47.4 % uploaded (184)
0271.783 (1) Remotesend chunked upload: 47.7 % uploaded (185)
0272.240 (1) Remotesend chunked upload: 47.9 % uploaded (186)
0272.861 (1) Remotesend chunked upload: 48.2 % uploaded (187)
0273.255 (1) Remotesend chunked upload: 48.4 % uploaded (188)
0273.706 (1) Remotesend chunked upload: 48.7 % uploaded (189)
0274.128 (1) Remotesend chunked upload: 48.9 % uploaded (190)
0274.590 (1) Remotesend chunked upload: 49.2 % uploaded (191)
0274.992 (1) Remotesend chunked upload: 49.5 % uploaded (192)
0275.479 (1) Remotesend chunked upload: 49.7 % uploaded (193)
0275.893 (1) Remotesend chunked upload: 50 % uploaded (194)
0277.126 (1) Remotesend chunked upload: 50.2 % uploaded (195)
0277.629 (1) Remotesend chunked upload: 50.5 % uploaded (196)
0278.043 (1) Remotesend chunked upload: 50.7 % uploaded (197)
0278.445 (1) Remotesend chunked upload: 51 % uploaded (198)
0278.841 (1) Remotesend chunked upload: 51.3 % uploaded (199)
0279.255 (1) Remotesend chunked upload: 51.5 % uploaded (200)
0279.698 (1) Remotesend chunked upload: 51.8 % uploaded (201)
0280.137 (1) Remotesend chunked upload: 52 % uploaded (202)
0280.611 (1) Remotesend chunked upload: 52.3 % uploaded (203)
0281.087 (1) Remotesend chunked upload: 52.5 % uploaded (204)
0281.485 (1) Remotesend chunked upload: 52.8 % uploaded (205)
0281.875 (1) Remotesend chunked upload: 53.1 % uploaded (206)
0282.274 (1) Remotesend chunked upload: 53.3 % uploaded (207)
0282.707 (1) Remotesend chunked upload: 53.6 % uploaded (208)
0283.141 (1) Remotesend chunked upload: 53.8 % uploaded (209)
0283.548 (1) Remotesend chunked upload: 54.1 % uploaded (210)
0284.038 (1) Remotesend chunked upload: 54.3 % uploaded (211)
0284.445 (1) Remotesend chunked upload: 54.6 % uploaded (212)
0284.878 (1) Remotesend chunked upload: 54.9 % uploaded (213)
0285.319 (1) Remotesend chunked upload: 55.1 % uploaded (214)
0285.730 (1) Remotesend chunked upload: 55.4 % uploaded (215)
0286.153 (1) Remotesend chunked upload: 55.6 % uploaded (216)
0286.604 (1) Remotesend chunked upload: 55.9 % uploaded (217)
0287.024 (1) Remotesend chunked upload: 56.2 % uploaded (218)
0287.469 (1) Remotesend chunked upload: 56.4 % uploaded (219)
0287.871 (1) Remotesend chunked upload: 56.7 % uploaded (220)
0288.535 (1) Remotesend chunked upload: 56.9 % uploaded (221)
0288.945 (1) Remotesend chunked upload: 57.2 % uploaded (222)
0289.354 (1) Remotesend chunked upload: 57.4 % uploaded (223)
0289.745 (1) Remotesend chunked upload: 57.7 % uploaded (224)
0290.148 (1) Remotesend chunked upload: 58 % uploaded (225)
0290.563 (1) Remotesend chunked upload: 58.2 % uploaded (226)
0290.980 (1) Remotesend chunked upload: 58.5 % uploaded (227)
0291.398 (1) Remotesend chunked upload: 58.7 % uploaded (228)
0291.833 (1) Remotesend chunked upload: 59 % uploaded (229)
0292.303 (1) Remotesend chunked upload: 59.2 % uploaded (230)
0292.748 (1) Remotesend chunked upload: 59.5 % uploaded (231)
0293.168 (1) Remotesend chunked upload: 59.8 % uploaded (232)
0293.559 (1) Remotesend chunked upload: 60 % uploaded (233)
0293.967 (1) Remotesend chunked upload: 60.3 % uploaded (234)
0294.426 (1) Remotesend chunked upload: 60.5 % uploaded (235)
0294.828 (1) Remotesend chunked upload: 60.8 % uploaded (236)
0295.233 (1) Remotesend chunked upload: 61 % uploaded (237)
0295.692 (1) Remotesend chunked upload: 61.3 % uploaded (238)
0296.164 (1) Remotesend chunked upload: 61.6 % uploaded (239)
0296.562 (1) Remotesend chunked upload: 61.8 % uploaded (240)
0296.986 (1) Remotesend chunked upload: 62.1 % uploaded (241)
0297.383 (1) Remotesend chunked upload: 62.3 % uploaded (242)
0297.850 (1) Remotesend chunked upload: 62.6 % uploaded (243)
0298.289 (1) Remotesend chunked upload: 62.8 % uploaded (244)
0298.711 (1) Remotesend chunked upload: 63.1 % uploaded (245)
0299.185 (1) Remotesend chunked upload: 63.4 % uploaded (246)
0299.575 (1) Remotesend chunked upload: 63.6 % uploaded (247)
0299.964 (1) Remotesend chunked upload: 63.9 % uploaded (248)
0300.420 (1) Remotesend chunked upload: 64.1 % uploaded (249)
0301.044 (1) Remotesend chunked upload: 64.4 % uploaded (250)
0301.533 (1) Remotesend chunked upload: 64.7 % uploaded (251)
0301.984 (1) Remotesend chunked upload: 64.9 % uploaded (252)
0302.439 (1) Remotesend chunked upload: 65.2 % uploaded (253)
0303.101 (1) Remotesend chunked upload: 65.4 % uploaded (254)
0303.498 (1) Remotesend chunked upload: 65.7 % uploaded (255)
0303.896 (1) Remotesend chunked upload: 65.9 % uploaded (256)
0304.370 (1) Remotesend chunked upload: 66.2 % uploaded (257)
0304.811 (1) Remotesend chunked upload: 66.5 % uploaded (258)
0305.219 (1) Remotesend chunked upload: 66.7 % uploaded (259)
0305.659 (1) Remotesend chunked upload: 67 % uploaded (260)
0306.065 (1) Remotesend chunked upload: 67.2 % uploaded (261)
0306.457 (1) Remotesend chunked upload: 67.5 % uploaded (262)
0306.856 (1) Remotesend chunked upload: 67.7 % uploaded (263)
0307.279 (1) Remotesend chunked upload: 68 % uploaded (264)
0307.683 (1) Remotesend chunked upload: 68.3 % uploaded (265)
0308.082 (1) Remotesend chunked upload: 68.5 % uploaded (266)
0308.556 (1) Remotesend chunked upload: 68.8 % uploaded (267)
0309.031 (1) Remotesend chunked upload: 69 % uploaded (268)
0309.439 (1) Remotesend chunked upload: 69.3 % uploaded (269)
0309.912 (1) Remotesend chunked upload: 69.5 % uploaded (270)
0310.323 (1) Remotesend chunked upload: 69.8 % uploaded (271)
0310.748 (1) Remotesend chunked upload: 70.1 % uploaded (272)
0311.187 (1) Remotesend chunked upload: 70.3 % uploaded (273)
0311.580 (1) Remotesend chunked upload: 70.6 % uploaded (274)
0311.994 (1) Remotesend chunked upload: 70.8 % uploaded (275)
0312.474 (1) Remotesend chunked upload: 71.1 % uploaded (276)
0312.880 (1) Remotesend chunked upload: 71.3 % uploaded (277)
0313.516 (1) Remotesend chunked upload: 71.6 % uploaded (278)
0313.947 (1) Remotesend chunked upload: 71.9 % uploaded (279)
0314.362 (1) Remotesend chunked upload: 72.1 % uploaded (280)
0314.796 (1) Remotesend chunked upload: 72.4 % uploaded (281)
0315.264 (1) Remotesend chunked upload: 72.6 % uploaded (282)
0315.716 (1) Remotesend chunked upload: 72.9 % uploaded (283)
0316.116 (1) Remotesend chunked upload: 73.2 % uploaded (284)
0316.582 (1) Remotesend chunked upload: 73.4 % uploaded (285)
0316.994 (1) Remotesend chunked upload: 73.7 % uploaded (286)
0317.455 (1) Remotesend chunked upload: 73.9 % uploaded (287)
0317.863 (1) Remotesend chunked upload: 74.2 % uploaded (288)
0318.291 (1) Remotesend chunked upload: 74.4 % uploaded (289)
0318.698 (1) Remotesend chunked upload: 74.7 % uploaded (290)
0319.125 (1) Remotesend chunked upload: 75 % uploaded (291)
0319.613 (1) Remotesend chunked upload: 75.2 % uploaded (292)
0320.100 (1) Remotesend chunked upload: 75.5 % uploaded (293)
0320.537 (1) Remotesend chunked upload: 75.7 % uploaded (294)
0320.951 (1) Remotesend chunked upload: 76 % uploaded (295)
0321.360 (1) Remotesend chunked upload: 76.2 % uploaded (296)
0321.824 (1) Remotesend chunked upload: 76.5 % uploaded (297)
0322.223 (1) Remotesend chunked upload: 76.8 % uploaded (298)
0322.644 (1) Remotesend chunked upload: 77 % uploaded (299)
0323.103 (1) Remotesend chunked upload: 77.3 % uploaded (300)
0323.563 (1) Remotesend chunked upload: 77.5 % uploaded (301)
0323.996 (1) Remotesend chunked upload: 77.8 % uploaded (302)
0324.438 (1) Remotesend chunked upload: 78 % uploaded (303)
0324.840 (1) Remotesend chunked upload: 78.3 % uploaded (304)
0325.280 (1) Remotesend chunked upload: 78.6 % uploaded (305)
0325.680 (1) Remotesend chunked upload: 78.8 % uploaded (306)
0326.098 (1) Remotesend chunked upload: 79.1 % uploaded (307)
0326.534 (1) Remotesend chunked upload: 79.3 % uploaded (308)
0326.947 (1) Remotesend chunked upload: 79.6 % uploaded (309)
0327.384 (1) Remotesend chunked upload: 79.8 % uploaded (310)
0327.785 (1) Remotesend chunked upload: 80.1 % uploaded (311)
0328.189 (1) Remotesend chunked upload: 80.4 % uploaded (312)
0328.640 (1) Remotesend chunked upload: 80.6 % uploaded (313)
0329.070 (1) Remotesend chunked upload: 80.9 % uploaded (314)
0329.466 (1) Remotesend chunked upload: 81.1 % uploaded (315)
0329.875 (1) Remotesend chunked upload: 81.4 % uploaded (316)
0330.322 (1) Remotesend chunked upload: 81.7 % uploaded (317)
0330.785 (1) Remotesend chunked upload: 81.9 % uploaded (318)
0331.250 (1) Remotesend chunked upload: 82.2 % uploaded (319)
0331.667 (1) Remotesend chunked upload: 82.4 % uploaded (320)
0332.089 (1) Remotesend chunked upload: 82.7 % uploaded (321)
0332.499 (1) Remotesend chunked upload: 82.9 % uploaded (322)
0332.910 (1) Remotesend chunked upload: 83.2 % uploaded (323)
0333.321 (1) Remotesend chunked upload: 83.5 % uploaded (324)
0333.798 (1) Remotesend chunked upload: 83.7 % uploaded (325)
0334.244 (1) Remotesend chunked upload: 84 % uploaded (326)
0334.685 (1) Remotesend chunked upload: 84.2 % uploaded (327)
0335.143 (1) Remotesend chunked upload: 84.5 % uploaded (328)
0335.583 (1) Remotesend chunked upload: 84.7 % uploaded (329)
0336.003 (1) Remotesend chunked upload: 85 % uploaded (330)
0336.501 (1) Remotesend chunked upload: 85.3 % uploaded (331)
0336.968 (1) Remotesend chunked upload: 85.5 % uploaded (332)
0337.859 (1) Remotesend chunked upload: 85.8 % uploaded (333)
0338.282 (1) Remotesend chunked upload: 86 % uploaded (334)
0338.751 (1) Remotesend chunked upload: 86.3 % uploaded (335)
0339.377 (1) Remotesend chunked upload: 86.5 % uploaded (336)
0340.002 (1) Remotesend chunked upload: 86.8 % uploaded (337)
0340.423 (1) Remotesend chunked upload: 87.1 % uploaded (338)
0340.880 (1) Remotesend chunked upload: 87.3 % uploaded (339)
0341.315 (1) Remotesend chunked upload: 87.6 % uploaded (340)
0341.727 (1) Remotesend chunked upload: 87.8 % uploaded (341)
0342.162 (1) Remotesend chunked upload: 88.1 % uploaded (342)
0342.605 (1) Remotesend chunked upload: 88.3 % uploaded (343)
0343.054 (1) Remotesend chunked upload: 88.6 % uploaded (344)
0343.525 (1) Remotesend chunked upload: 88.9 % uploaded (345)
0343.919 (1) Remotesend chunked upload: 89.1 % uploaded (346)
0344.382 (1) Remotesend chunked upload: 89.4 % uploaded (347)
0344.814 (1) Remotesend chunked upload: 89.6 % uploaded (348)
0345.210 (1) Remotesend chunked upload: 89.9 % uploaded (349)
0345.621 (1) Remotesend chunked upload: 90.2 % uploaded (350)
0346.040 (1) Remotesend chunked upload: 90.4 % uploaded (351)
0346.520 (1) Remotesend chunked upload: 90.7 % uploaded (352)
0346.922 (1) Remotesend chunked upload: 90.9 % uploaded (353)
0347.542 (1) Remotesend chunked upload: 91.2 % uploaded (354)
0348.605 (1) Remotesend chunked upload: 91.4 % uploaded (355)
0349.079 (1) Remotesend chunked upload: 91.7 % uploaded (356)
0349.499 (1) Remotesend chunked upload: 92 % uploaded (357)
0349.907 (1) Remotesend chunked upload: 92.2 % uploaded (358)
0350.363 (1) Remotesend chunked upload: 92.5 % uploaded (359)
0350.812 (1) Remotesend chunked upload: 92.7 % uploaded (360)
0351.283 (1) Remotesend chunked upload: 93 % uploaded (361)
0351.697 (1) Remotesend chunked upload: 93.2 % uploaded (362)
0352.102 (1) Remotesend chunked upload: 93.5 % uploaded (363)
0352.704 (1) Remotesend chunked upload: 93.8 % uploaded (364)
0353.123 (1) Remotesend chunked upload: 94 % uploaded (365)
0353.614 (1) Remotesend chunked upload: 94.3 % uploaded (366)
0354.048 (1) Remotesend chunked upload: 94.5 % uploaded (367)
0354.509 (1) Remotesend chunked upload: 94.8 % uploaded (368)
0354.925 (1) Remotesend chunked upload: 95 % uploaded (369)
0355.377 (1) Remotesend chunked upload: 95.3 % uploaded (370)
0355.786 (1) Remotesend chunked upload: 95.6 % uploaded (371)
0356.183 (1) Remotesend chunked upload: 95.8 % uploaded (372)
0356.802 (1) Remotesend chunked upload: 96.1 % uploaded (373)
0357.219 (1) Remotesend chunked upload: 96.3 % uploaded (374)
0357.675 (1) Remotesend chunked upload: 96.6 % uploaded (375)
0358.093 (1) Remotesend chunked upload: 96.9 % uploaded (376)
0358.499 (1) Remotesend chunked upload: 97.1 % uploaded (377)
0358.921 (1) Remotesend chunked upload: 97.4 % uploaded (378)
0359.379 (1) Remotesend chunked upload: 97.6 % uploaded (379)
0359.828 (1) Remotesend chunked upload: 97.9 % uploaded (380)
0360.292 (1) Remotesend chunked upload: 98.1 % uploaded (381)
0360.761 (1) Remotesend chunked upload: 98.4 % uploaded (382)
0361.171 (1) Remotesend chunked upload: 98.7 % uploaded (383)
0361.576 (1) Remotesend chunked upload: 98.9 % uploaded (384)
0361.972 (1) Remotesend chunked upload: 99.2 % uploaded (385)
0362.412 (1) Remotesend chunked upload: 99.4 % uploaded (386)
0362.854 (1) Remotesend chunked upload: 99.7 % uploaded (387)
0363.289 (1) Remotesend chunked upload: 99.9 % uploaded (388)
0363.851 (1) Remotesend chunked upload: 100 % uploaded (389)
0363.853 (1) Remote send upload: success
0363.856 (1) Recording as successfully uploaded: backup_2020-07-23-0326_AWordPressSite_b56b34ce4264-uploads.zip (5a0f7628bfff4110595f6eaefaf123b2)
0363.861 (1) Deleting local file: backup_2020-07-23-0326_AWordPressSite_b56b34ce4264-uploads.zip: skipped: user has unchecked updraft_delete_local option
0363.862 (1) remotesend upload : attempt: backup_2020-07-23-0326_AWordPressSite_b56b34ce4264-uploads2.zip
0364.158 (1) backup_2020-07-23-0326_AWordPressSite_b56b34ce4264-uploads2.zip: existing size: 0
0364.160 (1) Remote send upload: backup_2020-07-23-0326_AWordPressSite_b56b34ce4264-uploads2.zip (chunks: 393, of size: 262144) -> remotesend://http://obd.490.myftpupload.com/backup_2020-07-23-0326_AWordPressSite_b56b34ce4264-uploads2.zip (0)
0364.596 (1) Remotesend chunked upload: 0.3 % uploaded (1)
0365.019 (1) Remotesend chunked upload: 0.5 % uploaded (2)
0365.431 (1) Remotesend chunked upload: 0.8 % uploaded (3)
0365.859 (1) Remotesend chunked upload: 1 % uploaded (4)
0366.326 (1) Remotesend chunked upload: 1.3 % uploaded (5)
0366.732 (1) Remotesend chunked upload: 1.5 % uploaded (6)
0367.348 (1) Remotesend chunked upload: 1.8 % uploaded (7)
0367.769 (1) Remotesend chunked upload: 2 % uploaded (8)
0368.174 (1) Remotesend chunked upload: 2.3 % uploaded (9)
0368.607 (1) Remotesend chunked upload: 2.6 % uploaded (10)
0711.589 (2) Opened log file at time: Thu, 23 Jul 2020 03:38:02 +0000 on http://gpa.9c0.myftpupload.com
0711.591 (2) UpdraftPlus WordPress backup plugin (https://updraftplus.com): 2.14.4.1 WP: 5.4.2 PHP: 7.3.12 (cgi-fcgi, Linux p3nlwpweb063.shr.prod.phx3.secureserver.net 4.4.216-1.el6.elrepo.x86_64 #1 SMP Wed Mar 11 09:29:51 EDT 2020 x86_64) MySQL: 5.7.26 WPLANG: en_CA Server: Apache safe_mode: 0 max_execution_time: 900 memory_limit: 256M (used: 12.6M | 4M) multisite: N openssl: OpenSSL 1.0.1e 11 Feb 2013 mcrypt: Y LANG:  ZipArchive::addFile: Y
0711.593 (2) Free space on disk containing Updraft's temporary directory: 369048918 MB
0711.595 (2) Backup run: resumption=2, nonce=b56b34ce4264, begun at=1595474771 (711s ago), job type=backup, previous check-in=109.2s
0711.598 (2) Scheduling a resumption (3) after 300 seconds (1595475782) in case this run gets aborted
0711.601 (2) Checking if we have a zip executable available
0711.602 (2) Zip engine: found/will use a binary zip: /usr/bin/zip
0711.603 (2) Creation of backups of directories: already finished
0711.604 (2) Saving backup status to database (elements: 10)
0711.609 (2) Database dump (WordPress DB): Creation was completed already
0711.617 (2) backup_2020-07-23-0326_AWordPressSite_b56b34ce4264-plugins.zip: plugins: This file has already been successfully uploaded
0711.618 (2) backup_2020-07-23-0326_AWordPressSite_b56b34ce4264-themes.zip: themes: This file has already been successfully uploaded
0711.619 (2) backup_2020-07-23-0326_AWordPressSite_b56b34ce4264-uploads.zip: uploads: This file has already been successfully uploaded
0711.620 (2) backup_2020-07-23-0326_AWordPressSite_b56b34ce4264-uploads2.zip: uploads: This file has not yet been successfully uploaded: will queue
0711.621 (2) backup_2020-07-23-0326_AWordPressSite_b56b34ce4264-uploads3.zip: uploads: This file has not yet been successfully uploaded: will queue
0711.622 (2) backup_2020-07-23-0326_AWordPressSite_b56b34ce4264-others.zip: others: This file has not yet been successfully uploaded: will queue
0711.623 (2) backup_2020-07-23-0326_AWordPressSite_b56b34ce4264-db.gz: db: This file has not yet been successfully uploaded: will queue
0711.624 (2) Saving backup history. Total backup size: 225.2 MB
0711.627 (2) Requesting upload of the files that have not yet been successfully uploaded (4)
0711.628 (2) Cloud backup selection (1/1): remotesend with instance (1/1) (last)
0711.629 (2) Beginning dispatch of backup to remote (remotesend)
0711.631 (2) remotesend upload : attempt: backup_2020-07-23-0326_AWordPressSite_b56b34ce4264-uploads2.zip
0711.979 (2) backup_2020-07-23-0326_AWordPressSite_b56b34ce4264-uploads2.zip: existing size: 2883584
0711.982 (2) Remote send upload: backup_2020-07-23-0326_AWordPressSite_b56b34ce4264-uploads2.zip (chunks: 393, of size: 262144) -> remotesend://http://obd.490.myftpupload.com/backup_2020-07-23-0326_AWordPressSite_b56b34ce4264-uploads2.zip (2883584)
0712.491 (2) Remotesend chunked upload: 3.1 % uploaded (12)
0712.921 (2) Remotesend chunked upload: 3.3 % uploaded (13)
0714.594 (2) Remotesend chunked upload: 3.6 % uploaded (14)
0715.040 (2) Remotesend chunked upload: 3.8 % uploaded (15)
0715.489 (2) Remotesend chunked upload: 4.1 % uploaded (16)
0715.966 (2) Remotesend chunked upload: 4.3 % uploaded (17)
0716.384 (2) Remotesend chunked upload: 4.6 % uploaded (18)
0716.830 (2) Remotesend chunked upload: 4.8 % uploaded (19)
0717.311 (2) Remotesend chunked upload: 5.1 % uploaded (20)
0717.752 (2) Remotesend chunked upload: 5.4 % uploaded (21)
0718.175 (2) Remotesend chunked upload: 5.6 % uploaded (22)
0718.615 (2) Remotesend chunked upload: 5.9 % uploaded (23)
0719.011 (2) Remotesend chunked upload: 6.1 % uploaded (24)
0719.418 (2) Remotesend chunked upload: 6.4 % uploaded (25)
0719.821 (2) Remotesend chunked upload: 6.6 % uploaded (26)
0720.219 (2) Remotesend chunked upload: 6.9 % uploaded (27)
0720.618 (2) Remotesend chunked upload: 7.1 % uploaded (28)
0721.022 (2) Remotesend chunked upload: 7.4 % uploaded (29)
0721.444 (2) Remotesend chunked upload: 7.7 % uploaded (30)
0721.901 (2) Remotesend chunked upload: 7.9 % uploaded (31)
0722.301 (2) Remotesend chunked upload: 8.2 % uploaded (32)
0722.693 (2) Remotesend chunked upload: 8.4 % uploaded (33)
0723.105 (2) Remotesend chunked upload: 8.7 % uploaded (34)
0723.525 (2) Remotesend chunked upload: 8.9 % uploaded (35)
0723.938 (2) Remotesend chunked upload: 9.2 % uploaded (36)
0724.428 (2) Remotesend chunked upload: 9.4 % uploaded (37)
0724.852 (2) Remotesend chunked upload: 9.7 % uploaded (38)
0725.274 (2) Remotesend chunked upload: 9.9 % uploaded (39)
0725.715 (2) Remotesend chunked upload: 10.2 % uploaded (40)
0726.154 (2) Remotesend chunked upload: 10.5 % uploaded (41)
0726.563 (2) Remotesend chunked upload: 10.7 % uploaded (42)
0727.019 (2) Remotesend chunked upload: 11 % uploaded (43)
0727.476 (2) Remotesend chunked upload: 11.2 % uploaded (44)
0727.916 (2) Remotesend chunked upload: 11.5 % uploaded (45)
0728.369 (2) Remotesend chunked upload: 11.7 % uploaded (46)
0728.778 (2) Remotesend chunked upload: 12 % uploaded (47)
0729.193 (2) Remotesend chunked upload: 12.2 % uploaded (48)
0729.604 (2) Remotesend chunked upload: 12.5 % uploaded (49)
0730.082 (2) Remotesend chunked upload: 12.8 % uploaded (50)
0730.535 (2) Remotesend chunked upload: 13 % uploaded (51)
0730.992 (2) Remotesend chunked upload: 13.3 % uploaded (52)
0731.516 (2) Remotesend chunked upload: 13.5 % uploaded (53)
0732.001 (2) Remotesend chunked upload: 13.8 % uploaded (54)
0732.613 (2) Remotesend chunked upload: 14 % uploaded (55)
0733.075 (2) Remotesend chunked upload: 14.3 % uploaded (56)
0733.533 (2) Remotesend chunked upload: 14.5 % uploaded (57)
0734.017 (2) Remotesend chunked upload: 14.8 % uploaded (58)
0734.477 (2) Remotesend chunked upload: 15 % uploaded (59)
0734.873 (2) Remotesend chunked upload: 15.3 % uploaded (60)
0735.303 (2) Remotesend chunked upload: 15.6 % uploaded (61)
0735.719 (2) Remotesend chunked upload: 15.8 % uploaded (62)
0736.218 (2) Remotesend chunked upload: 16.1 % uploaded (63)
0736.627 (2) Remotesend chunked upload: 16.3 % uploaded (64)
0737.088 (2) Remotesend chunked upload: 16.6 % uploaded (65)
0737.486 (2) Remotesend chunked upload: 16.8 % uploaded (66)
0737.887 (2) Remotesend chunked upload: 17.1 % uploaded (67)
0738.293 (2) Remotesend chunked upload: 17.3 % uploaded (68)
0738.797 (2) Remotesend chunked upload: 17.6 % uploaded (69)
0739.216 (2) Remotesend chunked upload: 17.9 % uploaded (70)
0739.639 (2) Remotesend chunked upload: 18.1 % uploaded (71)
0740.037 (2) Remotesend chunked upload: 18.4 % uploaded (72)
0740.467 (2) Remotesend chunked upload: 18.6 % uploaded (73)
0740.866 (2) Remotesend chunked upload: 18.9 % uploaded (74)
0741.294 (2) Remotesend chunked upload: 19.1 % uploaded (75)
0741.689 (2) Remotesend chunked upload: 19.4 % uploaded (76)
0742.112 (2) Remotesend chunked upload: 19.6 % uploaded (77)
0742.536 (2) Remotesend chunked upload: 19.9 % uploaded (78)
0743.057 (2) Remotesend chunked upload: 20.1 % uploaded (79)
0743.460 (2) Remotesend chunked upload: 20.4 % uploaded (80)
0743.887 (2) Remotesend chunked upload: 20.7 % uploaded (81)
0744.353 (2) Remotesend chunked upload: 20.9 % uploaded (82)
0744.761 (2) Remotesend chunked upload: 21.2 % uploaded (83)
0745.156 (2) Remotesend chunked upload: 21.4 % uploaded (84)
0745.637 (2) Remotesend chunked upload: 21.7 % uploaded (85)
0746.043 (2) Remotesend chunked upload: 21.9 % uploaded (86)
0746.453 (2) Remotesend chunked upload: 22.2 % uploaded (87)
0746.861 (2) Remotesend chunked upload: 22.4 % uploaded (88)
0747.265 (2) Remotesend chunked upload: 22.7 % uploaded (89)
0747.901 (2) Remotesend chunked upload: 23 % uploaded (90)
0748.333 (2) Remotesend chunked upload: 23.2 % uploaded (91)
0748.726 (2) Remotesend chunked upload: 23.5 % uploaded (92)
0749.132 (2) Remotesend chunked upload: 23.7 % uploaded (93)
0749.518 (2) Remotesend chunked upload: 24 % uploaded (94)
0749.909 (2) Remotesend chunked upload: 24.2 % uploaded (95)
0750.330 (2) Remotesend chunked upload: 24.5 % uploaded (96)
0750.763 (2) Remotesend chunked upload: 24.7 % uploaded (97)
0751.174 (2) Remotesend chunked upload: 25 % uploaded (98)
0751.569 (2) Remotesend chunked upload: 25.3 % uploaded (99)
0751.974 (2) Remotesend chunked upload: 25.5 % uploaded (100)
0752.417 (2) Remotesend chunked upload: 25.8 % uploaded (101)
0752.853 (2) Remotesend chunked upload: 26 % uploaded (102)
0753.327 (2) Remotesend chunked upload: 26.3 % uploaded (103)
0753.735 (2) Remotesend chunked upload: 26.5 % uploaded (104)
0754.134 (2) Remotesend chunked upload: 26.8 % uploaded (105)
0754.614 (2) Remotesend chunked upload: 27 % uploaded (106)
0755.022 (2) Remotesend chunked upload: 27.3 % uploaded (107)
0755.452 (2) Remotesend chunked upload: 27.5 % uploaded (108)
0755.913 (2) Remotesend chunked upload: 27.8 % uploaded (109)
0756.391 (2) Remotesend chunked upload: 28.1 % uploaded (110)
0756.875 (2) Remotesend chunked upload: 28.3 % uploaded (111)
0757.322 (2) Remotesend chunked upload: 28.6 % uploaded (112)
0757.811 (2) Remotesend chunked upload: 28.8 % uploaded (113)
0758.243 (2) Remotesend chunked upload: 29.1 % uploaded (114)
0758.803 (2) Remotesend chunked upload: 29.3 % uploaded (115)
0759.325 (2) Remotesend chunked upload: 29.6 % uploaded (116)
0759.752 (2) Remotesend chunked upload: 29.8 % uploaded (117)
0760.167 (2) Remotesend chunked upload: 30.1 % uploaded (118)
0760.636 (2) Remotesend chunked upload: 30.4 % uploaded (119)
0761.079 (2) Remotesend chunked upload: 30.6 % uploaded (120)
0761.513 (2) Remotesend chunked upload: 30.9 % uploaded (121)
0761.927 (2) Remotesend chunked upload: 31.1 % uploaded (122)
0762.393 (2) Remotesend chunked upload: 31.4 % uploaded (123)
0762.893 (2) Remotesend chunked upload: 31.6 % uploaded (124)
0763.412 (2) Remotesend chunked upload: 31.9 % uploaded (125)
0763.912 (2) Remotesend chunked upload: 32.1 % uploaded (126)
0764.448 (2) Remotesend chunked upload: 32.4 % uploaded (127)
0764.947 (2) Remotesend chunked upload: 32.6 % uploaded (128)
0765.362 (2) Remotesend chunked upload: 32.9 % uploaded (129)
0765.756 (2) Remotesend chunked upload: 33.2 % uploaded (130)
0766.269 (2) Remotesend chunked upload: 33.4 % uploaded (131)
0766.740 (2) Remotesend chunked upload: 33.7 % uploaded (132)
0767.223 (2) Remotesend chunked upload: 33.9 % uploaded (133)
0767.673 (2) Remotesend chunked upload: 34.2 % uploaded (134)
0768.106 (2) Remotesend chunked upload: 34.4 % uploaded (135)
0768.550 (2) Remotesend chunked upload: 34.7 % uploaded (136)
0769.050 (2) Remotesend chunked upload: 34.9 % uploaded (137)
0769.464 (2) Remotesend chunked upload: 35.2 % uploaded (138)
0769.885 (2) Remotesend chunked upload: 35.5 % uploaded (139)
0770.287 (2) Remotesend chunked upload: 35.7 % uploaded (140)
0770.732 (2) Remotesend chunked upload: 36 % uploaded (141)
0771.159 (2) Remotesend chunked upload: 36.2 % uploaded (142)
0771.592 (2) Remotesend chunked upload: 36.5 % uploaded (143)
0772.050 (2) Remotesend chunked upload: 36.7 % uploaded (144)
0772.661 (2) Remotesend chunked upload: 37 % uploaded (145)
0773.064 (2) Remotesend chunked upload: 37.2 % uploaded (146)
0773.481 (2) Remotesend chunked upload: 37.5 % uploaded (147)
0773.924 (2) Remotesend chunked upload: 37.7 % uploaded (148)
0774.328 (2) Remotesend chunked upload: 38 % uploaded (149)
0774.734 (2) Remotesend chunked upload: 38.3 % uploaded (150)
0775.124 (2) Remotesend chunked upload: 38.5 % uploaded (151)
0775.526 (2) Remotesend chunked upload: 38.8 % uploaded (152)
0776.406 (2) Remotesend chunked upload: 39 % uploaded (153)
0776.856 (2) Remotesend chunked upload: 39.3 % uploaded (154)
0777.355 (2) Remotesend chunked upload: 39.5 % uploaded (155)
0777.765 (2) Remotesend chunked upload: 39.8 % uploaded (156)
0778.176 (2) Remotesend chunked upload: 40 % uploaded (157)
0778.611 (2) Remotesend chunked upload: 40.3 % uploaded (158)
0779.069 (2) Remotesend chunked upload: 40.6 % uploaded (159)
0780.739 (2) Remotesend chunked upload: 40.8 % uploaded (160)
0781.168 (2) Remotesend chunked upload: 41.1 % uploaded (161)
0781.611 (2) Remotesend chunked upload: 41.3 % uploaded (162)
0782.030 (2) Remotesend chunked upload: 41.6 % uploaded (163)
0782.465 (2) Remotesend chunked upload: 41.8 % uploaded (164)
0782.896 (2) Remotesend chunked upload: 42.1 % uploaded (165)
0783.383 (2) Remotesend chunked upload: 42.3 % uploaded (166)
0783.845 (2) Remotesend chunked upload: 42.6 % uploaded (167)
0784.280 (2) Remotesend chunked upload: 42.8 % uploaded (168)
0784.718 (2) Remotesend chunked upload: 43.1 % uploaded (169)
0785.202 (2) Remotesend chunked upload: 43.4 % uploaded (170)
0785.688 (2) Remotesend chunked upload: 43.6 % uploaded (171)
0786.123 (2) Remotesend chunked upload: 43.9 % uploaded (172)
0786.602 (2) Remotesend chunked upload: 44.1 % uploaded (173)
0787.016 (2) Remotesend chunked upload: 44.4 % uploaded (174)
0787.476 (2) Remotesend chunked upload: 44.6 % uploaded (175)
0787.883 (2) Remotesend chunked upload: 44.9 % uploaded (176)
0788.309 (2) Remotesend chunked upload: 45.1 % uploaded (177)
0788.705 (2) Remotesend chunked upload: 45.4 % uploaded (178)
0789.095 (2) Remotesend chunked upload: 45.7 % uploaded (179)
0789.577 (2) Remotesend chunked upload: 45.9 % uploaded (180)
0789.999 (2) Remotesend chunked upload: 46.2 % uploaded (181)
0790.454 (2) Remotesend chunked upload: 46.4 % uploaded (182)
0790.853 (2) Remotesend chunked upload: 46.7 % uploaded (183)
0791.292 (2) Remotesend chunked upload: 46.9 % uploaded (184)
0791.697 (2) Remotesend chunked upload: 47.2 % uploaded (185)
0792.102 (2) Remotesend chunked upload: 47.4 % uploaded (186)
0792.533 (2) Remotesend chunked upload: 47.7 % uploaded (187)
0792.921 (2) Remotesend chunked upload: 48 % uploaded (188)
0793.393 (2) Remotesend chunked upload: 48.2 % uploaded (189)
0793.796 (2) Remotesend chunked upload: 48.5 % uploaded (190)
0794.266 (2) Remotesend chunked upload: 48.7 % uploaded (191)
0794.709 (2) Remotesend chunked upload: 49 % uploaded (192)
0795.150 (2) Remotesend chunked upload: 49.2 % uploaded (193)
0795.557 (2) Remotesend chunked upload: 49.5 % uploaded (194)
0795.947 (2) Remotesend chunked upload: 49.7 % uploaded (195)
0796.384 (2) Remotesend chunked upload: 50 % uploaded (196)
0796.818 (2) Remotesend chunked upload: 50.2 % uploaded (197)
0797.221 (2) Remotesend chunked upload: 50.5 % uploaded (198)
0798.473 (2) Remotesend chunked upload: 50.8 % uploaded (199)
0798.894 (2) Remotesend chunked upload: 51 % uploaded (200)
0799.288 (2) Remotesend chunked upload: 51.3 % uploaded (201)
0799.704 (2) Remotesend chunked upload: 51.5 % uploaded (202)
0800.153 (2) Remotesend chunked upload: 51.8 % uploaded (203)
0800.539 (2) Remotesend chunked upload: 52 % uploaded (204)
0800.944 (2) Remotesend chunked upload: 52.3 % uploaded (205)
0801.343 (2) Remotesend chunked upload: 52.5 % uploaded (206)
0801.769 (2) Remotesend chunked upload: 52.8 % uploaded (207)
0802.169 (2) Remotesend chunked upload: 53.1 % uploaded (208)
0802.577 (2) Remotesend chunked upload: 53.3 % uploaded (209)
0802.990 (2) Remotesend chunked upload: 53.6 % uploaded (210)
0803.866 (2) Remotesend chunked upload: 53.8 % uploaded (211)
0804.287 (2) Remotesend chunked upload: 54.1 % uploaded (212)
0804.790 (2) Remotesend chunked upload: 54.3 % uploaded (213)
0805.220 (2) Remotesend chunked upload: 54.6 % uploaded (214)
0805.697 (2) Remotesend chunked upload: 54.8 % uploaded (215)
0806.178 (2) Remotesend chunked upload: 55.1 % uploaded (216)
0806.567 (2) Remotesend chunked upload: 55.3 % uploaded (217)
0807.000 (2) Remotesend chunked upload: 55.6 % uploaded (218)
0807.640 (2) Remotesend chunked upload: 55.9 % uploaded (219)
0808.054 (2) Remotesend chunked upload: 56.1 % uploaded (220)
0808.505 (2) Remotesend chunked upload: 56.4 % uploaded (221)
0809.421 (2) Remotesend chunked upload: 56.6 % uploaded (222)
0809.841 (2) Remotesend chunked upload: 56.9 % uploaded (223)
0810.299 (2) Remotesend chunked upload: 57.1 % uploaded (224)
0810.761 (2) Remotesend chunked upload: 57.4 % uploaded (225)
0811.196 (2) Remotesend chunked upload: 57.6 % uploaded (226)
0811.587 (2) Remotesend chunked upload: 57.9 % uploaded (227)
0812.014 (2) Remotesend chunked upload: 58.2 % uploaded (228)
0812.463 (2) Remotesend chunked upload: 58.4 % uploaded (229)
0812.912 (2) Remotesend chunked upload: 58.7 % uploaded (230)
0813.348 (2) Remotesend chunked upload: 58.9 % uploaded (231)
1045.262 (3) Opened log file at time: Thu, 23 Jul 2020 03:43:36 +0000 on http://gpa.9c0.myftpupload.com
1045.263 (3) UpdraftPlus WordPress backup plugin (https://updraftplus.com): 2.14.4.1 WP: 5.4.2 PHP: 7.3.12 (cgi-fcgi, Linux p3nlwpweb063.shr.prod.phx3.secureserver.net 4.4.216-1.el6.elrepo.x86_64 #1 SMP Wed Mar 11 09:29:51 EDT 2020 x86_64) MySQL: 5.7.26 WPLANG: en_CA Server: Apache safe_mode: 0 max_execution_time: 900 memory_limit: 256M (used: 12.6M | 2M) multisite: N openssl: OpenSSL 1.0.1e 11 Feb 2013 mcrypt: Y LANG:  ZipArchive::addFile: Y
1045.265 (3) Free space on disk containing Updraft's temporary directory: 369034899 MB
1045.268 (3) Backup run: resumption=3, nonce=b56b34ce4264, begun at=1595474771 (1045s ago), job type=backup, previous check-in=101.8s
1045.270 (3) Scheduling a resumption (4) after 300 seconds (1595476116) in case this run gets aborted
1045.300 (3) Checking if we have a zip executable available
1045.301 (3) Zip engine: found/will use a binary zip: /usr/bin/zip
1045.302 (3) Creation of backups of directories: already finished
1045.309 (3) Saving backup status to database (elements: 10)
1045.321 (3) Database dump (WordPress DB): Creation was completed already
1045.329 (3) backup_2020-07-23-0326_AWordPressSite_b56b34ce4264-plugins.zip: plugins: This file has already been successfully uploaded
1045.330 (3) backup_2020-07-23-0326_AWordPressSite_b56b34ce4264-themes.zip: themes: This file has already been successfully uploaded
1045.331 (3) backup_2020-07-23-0326_AWordPressSite_b56b34ce4264-uploads.zip: uploads: This file has already been successfully uploaded
1045.332 (3) backup_2020-07-23-0326_AWordPressSite_b56b34ce4264-uploads2.zip: uploads: This file has not yet been successfully uploaded: will queue
1045.333 (3) backup_2020-07-23-0326_AWordPressSite_b56b34ce4264-uploads3.zip: uploads: This file has not yet been successfully uploaded: will queue
1045.334 (3) backup_2020-07-23-0326_AWordPressSite_b56b34ce4264-others.zip: others: This file has not yet been successfully uploaded: will queue
1045.335 (3) backup_2020-07-23-0326_AWordPressSite_b56b34ce4264-db.gz: db: This file has not yet been successfully uploaded: will queue
1045.336 (3) Saving backup history. Total backup size: 225.2 MB
1045.339 (3) Requesting upload of the files that have not yet been successfully uploaded (4)
1045.340 (3) Cloud backup selection (1/1): remotesend with instance (1/1) (last)
1045.341 (3) Beginning dispatch of backup to remote (remotesend)
1045.348 (3) remotesend upload : attempt: backup_2020-07-23-0326_AWordPressSite_b56b34ce4264-uploads2.zip
1045.886 (3) backup_2020-07-23-0326_AWordPressSite_b56b34ce4264-uploads2.zip: existing size: 60817408
1045.889 (3) Remote send upload: backup_2020-07-23-0326_AWordPressSite_b56b34ce4264-uploads2.zip (chunks: 393, of size: 262144) -> remotesend://http://obd.490.myftpupload.com/backup_2020-07-23-0326_AWordPressSite_b56b34ce4264-uploads2.zip (60817408)
1047.391 (3) Remotesend chunked upload: 59.4 % uploaded (233)
1047.830 (3) Remotesend chunked upload: 59.7 % uploaded (234)
1048.310 (3) Remotesend chunked upload: 59.9 % uploaded (235)
1048.738 (3) Remotesend chunked upload: 60.2 % uploaded (236)
1049.137 (3) Remotesend chunked upload: 60.4 % uploaded (237)
1049.562 (3) Remotesend chunked upload: 60.7 % uploaded (238)
1050.033 (3) Remotesend chunked upload: 61 % uploaded (239)
1050.666 (3) Remotesend chunked upload: 61.2 % uploaded (240)
1051.108 (3) Remotesend chunked upload: 61.5 % uploaded (241)
1051.576 (3) Remotesend chunked upload: 61.7 % uploaded (242)
1051.990 (3) Remotesend chunked upload: 62 % uploaded (243)
1052.438 (3) Remotesend chunked upload: 62.2 % uploaded (244)
1052.834 (3) Remotesend chunked upload: 62.5 % uploaded (245)
1053.271 (3) Remotesend chunked upload: 62.7 % uploaded (246)
1053.679 (3) Remotesend chunked upload: 63 % uploaded (247)
1054.100 (3) Remotesend chunked upload: 63.3 % uploaded (248)
1054.532 (3) Remotesend chunked upload: 63.5 % uploaded (249)
1054.928 (3) Remotesend chunked upload: 63.8 % uploaded (250)
1055.389 (3) Remotesend chunked upload: 64 % uploaded (251)
1055.784 (3) Remotesend chunked upload: 64.3 % uploaded (252)
1056.236 (3) Remotesend chunked upload: 64.5 % uploaded (253)
1056.691 (3) Remotesend chunked upload: 64.8 % uploaded (254)
1057.079 (3) Remotesend chunked upload: 65 % uploaded (255)
1057.479 (3) Remotesend chunked upload: 65.3 % uploaded (256)
1057.887 (3) Remotesend chunked upload: 65.5 % uploaded (257)
1058.331 (3) Remotesend chunked upload: 65.8 % uploaded (258)
1058.745 (3) Remotesend chunked upload: 66.1 % uploaded (259)
1059.148 (3) Remotesend chunked upload: 66.3 % uploaded (260)
1059.554 (3) Remotesend chunked upload: 66.6 % uploaded (261)
1060.003 (3) Remotesend chunked upload: 66.8 % uploaded (262)
1060.444 (3) Remotesend chunked upload: 67.1 % uploaded (263)
1060.859 (3) Remotesend chunked upload: 67.3 % uploaded (264)
1061.328 (3) Remotesend chunked upload: 67.6 % uploaded (265)
1061.750 (3) Remotesend chunked upload: 67.8 % uploaded (266)
1062.155 (3) Remotesend chunked upload: 68.1 % uploaded (267)
1062.544 (3) Remotesend chunked upload: 68.4 % uploaded (268)
1062.978 (3) Remotesend chunked upload: 68.6 % uploaded (269)
1063.370 (3) Remotesend chunked upload: 68.9 % uploaded (270)
1063.781 (3) Remotesend chunked upload: 69.1 % uploaded (271)
1064.207 (3) Remotesend chunked upload: 69.4 % uploaded (272)
1064.660 (3) Remotesend chunked upload: 69.6 % uploaded (273)
1065.124 (3) Remotesend chunked upload: 69.9 % uploaded (274)
1065.524 (3) Remotesend chunked upload: 70.1 % uploaded (275)
1065.948 (3) Remotesend chunked upload: 70.4 % uploaded (276)
1066.362 (3) Remotesend chunked upload: 70.7 % uploaded (277)
1066.756 (3) Remotesend chunked upload: 70.9 % uploaded (278)
1067.157 (3) Remotesend chunked upload: 71.2 % uploaded (279)
1067.580 (3) Remotesend chunked upload: 71.4 % uploaded (280)
1068.037 (3) Remotesend chunked upload: 71.7 % uploaded (281)
1068.426 (3) Remotesend chunked upload: 71.9 % uploaded (282)
1068.817 (3) Remotesend chunked upload: 72.2 % uploaded (283)
1069.268 (3) Remotesend chunked upload: 72.4 % uploaded (284)
1069.721 (3) Remotesend chunked upload: 72.7 % uploaded (285)
1070.138 (3) Remotesend chunked upload: 72.9 % uploaded (286)
1070.558 (3) Remotesend chunked upload: 73.2 % uploaded (287)
1071.166 (3) Remotesend chunked upload: 73.5 % uploaded (288)
1071.634 (3) Remotesend chunked upload: 73.7 % uploaded (289)
1072.130 (3) Remotesend chunked upload: 74 % uploaded (290)
1072.571 (3) Remotesend chunked upload: 74.2 % uploaded (291)
1073.029 (3) Remotesend chunked upload: 74.5 % uploaded (292)
1073.482 (3) Remotesend chunked upload: 74.7 % uploaded (293)
1073.926 (3) Remotesend chunked upload: 75 % uploaded (294)
1074.778 (3) Remotesend chunked upload: 75.2 % uploaded (295)
1075.167 (3) Remotesend chunked upload: 75.5 % uploaded (296)
1075.603 (3) Remotesend chunked upload: 75.8 % uploaded (297)
1076.083 (3) Remotesend chunked upload: 76 % uploaded (298)
1076.486 (3) Remotesend chunked upload: 76.3 % uploaded (299)
1076.916 (3) Remotesend chunked upload: 76.5 % uploaded (300)
1077.366 (3) Remotesend chunked upload: 76.8 % uploaded (301)
1077.784 (3) Remotesend chunked upload: 77 % uploaded (302)
1078.233 (3) Remotesend chunked upload: 77.3 % uploaded (303)
1078.677 (3) Remotesend chunked upload: 77.5 % uploaded (304)
1079.125 (3) Remotesend chunked upload: 77.8 % uploaded (305)
1079.534 (3) Remotesend chunked upload: 78 % uploaded (306)
1079.935 (3) Remotesend chunked upload: 78.3 % uploaded (307)
1080.377 (3) Remotesend chunked upload: 78.6 % uploaded (308)
1080.794 (3) Remotesend chunked upload: 78.8 % uploaded (309)
1081.203 (3) Remotesend chunked upload: 79.1 % uploaded (310)
1081.651 (3) Remotesend chunked upload: 79.3 % uploaded (311)
1082.059 (3) Remotesend chunked upload: 79.6 % uploaded (312)
1082.472 (3) Remotesend chunked upload: 79.8 % uploaded (313)
1082.872 (3) Remotesend chunked upload: 80.1 % uploaded (314)
1083.335 (3) Remotesend chunked upload: 80.3 % uploaded (315)
1083.792 (3) Remotesend chunked upload: 80.6 % uploaded (316)
1084.243 (3) Remotesend chunked upload: 80.9 % uploaded (317)
1085.710 (3) Remotesend chunked upload: 81.1 % uploaded (318)
1086.136 (3) Remotesend chunked upload: 81.4 % uploaded (319)
1086.607 (3) Remotesend chunked upload: 81.6 % uploaded (320)
1087.011 (3) Remotesend chunked upload: 81.9 % uploaded (321)
1087.434 (3) Remotesend chunked upload: 82.1 % uploaded (322)
1087.832 (3) Remotesend chunked upload: 82.4 % uploaded (323)
1088.235 (3) Remotesend chunked upload: 82.6 % uploaded (324)
1088.706 (3) Remotesend chunked upload: 82.9 % uploaded (325)
1089.151 (3) Remotesend chunked upload: 83.1 % uploaded (326)
1089.597 (3) Remotesend chunked upload: 83.4 % uploaded (327)
1090.047 (3) Remotesend chunked upload: 83.7 % uploaded (328)
1090.434 (3) Remotesend chunked upload: 83.9 % uploaded (329)
1090.826 (3) Remotesend chunked upload: 84.2 % uploaded (330)
1091.455 (3) Remotesend chunked upload: 84.4 % uploaded (331)
1091.872 (3) Remotesend chunked upload: 84.7 % uploaded (332)
1092.303 (3) Remotesend chunked upload: 84.9 % uploaded (333)
1092.730 (3) Remotesend chunked upload: 85.2 % uploaded (334)
1093.168 (3) Remotesend chunked upload: 85.4 % uploaded (335)
1093.611 (3) Remotesend chunked upload: 85.7 % uploaded (336)
1094.011 (3) Remotesend chunked upload: 86 % uploaded (337)
1094.453 (3) Remotesend chunked upload: 86.2 % uploaded (338)
1094.849 (3) Remotesend chunked upload: 86.5 % uploaded (339)
1095.244 (3) Remotesend chunked upload: 86.7 % uploaded (340)
1095.645 (3) Remotesend chunked upload: 87 % uploaded (341)
1096.083 (3) Remotesend chunked upload: 87.2 % uploaded (342)
1096.470 (3) Remotesend chunked upload: 87.5 % uploaded (343)
1096.894 (3) Remotesend chunked upload: 87.7 % uploaded (344)
1097.352 (3) Remotesend chunked upload: 88 % uploaded (345)
1097.744 (3) Remotesend chunked upload: 88.2 % uploaded (346)
1098.183 (3) Remotesend chunked upload: 88.5 % uploaded (347)
1099.057 (3) Remotesend chunked upload: 88.8 % uploaded (348)
1099.467 (3) Remotesend chunked upload: 89 % uploaded (349)
1099.917 (3) Remotesend chunked upload: 89.3 % uploaded (350)
1100.331 (3) Remotesend chunked upload: 89.5 % uploaded (351)
1100.774 (3) Remotesend chunked upload: 89.8 % uploaded (352)
1101.216 (3) Remotesend chunked upload: 90 % uploaded (353)
1101.697 (3) Remotesend chunked upload: 90.3 % uploaded (354)
1102.093 (3) Remotesend chunked upload: 90.5 % uploaded (355)
1102.502 (3) Remotesend chunked upload: 90.8 % uploaded (356)
1102.906 (3) Remotesend chunked upload: 91.1 % uploaded (357)
1103.309 (3) Remotesend chunked upload: 91.3 % uploaded (358)
1103.736 (3) Remotesend chunked upload: 91.6 % uploaded (359)
1104.129 (3) Remotesend chunked upload: 91.8 % uploaded (360)
1104.518 (3) Remotesend chunked upload: 92.1 % uploaded (361)
1104.914 (3) Remotesend chunked upload: 92.3 % uploaded (362)
1105.419 (3) Remotesend chunked upload: 92.6 % uploaded (363)
1105.822 (3) Remotesend chunked upload: 92.8 % uploaded (364)
1106.249 (3) Remotesend chunked upload: 93.1 % uploaded (365)
1106.672 (3) Remotesend chunked upload: 93.4 % uploaded (366)
1107.138 (3) Remotesend chunked upload: 93.6 % uploaded (367)
1107.544 (3) Remotesend chunked upload: 93.9 % uploaded (368)
1107.942 (3) Remotesend chunked upload: 94.1 % uploaded (369)
1108.369 (3) Remotesend chunked upload: 94.4 % uploaded (370)
1108.770 (3) Remotesend chunked upload: 94.6 % uploaded (371)
1109.187 (3) Remotesend chunked upload: 94.9 % uploaded (372)
1109.625 (3) Remotesend chunked upload: 95.1 % uploaded (373)
1110.103 (3) Remotesend chunked upload: 95.4 % uploaded (374)
1110.533 (3) Remotesend chunked upload: 95.6 % uploaded (375)
1110.951 (3) Remotesend chunked upload: 95.9 % uploaded (376)
1111.355 (3) Remotesend chunked upload: 96.2 % uploaded (377)
1111.754 (3) Remotesend chunked upload: 96.4 % uploaded (378)
1112.148 (3) Remotesend chunked upload: 96.7 % uploaded (379)
1112.563 (3) Remotesend chunked upload: 96.9 % uploaded (380)
1112.994 (3) Remotesend chunked upload: 97.2 % uploaded (381)
1113.397 (3) Remotesend chunked upload: 97.4 % uploaded (382)
1113.835 (3) Remotesend chunked upload: 97.7 % uploaded (383)
1114.230 (3) Remotesend chunked upload: 97.9 % uploaded (384)
1114.681 (3) Remotesend chunked upload: 98.2 % uploaded (385)
1115.118 (3) Remotesend chunked upload: 98.5 % uploaded (386)
1115.725 (3) Remotesend chunked upload: 98.7 % uploaded (387)
1116.141 (3) Remotesend chunked upload: 99 % uploaded (388)
1116.595 (3) Remotesend chunked upload: 99.2 % uploaded (389)
1116.996 (3) Remotesend chunked upload: 99.5 % uploaded (390)
1117.400 (3) Remotesend chunked upload: 99.7 % uploaded (391)
1117.807 (3) Remotesend chunked upload: 100 % uploaded (392)
1118.142 (3) Remotesend chunked upload: 100 % uploaded (393)
1118.143 (3) Remote send upload: success
1118.146 (3) Recording as successfully uploaded: backup_2020-07-23-0326_AWordPressSite_b56b34ce4264-uploads2.zip (75c827a559f09b8d5f55b16de736f82e)
1118.151 (3) Deleting local file: backup_2020-07-23-0326_AWordPressSite_b56b34ce4264-uploads2.zip: skipped: user has unchecked updraft_delete_local option
1118.152 (3) remotesend upload : attempt: backup_2020-07-23-0326_AWordPressSite_b56b34ce4264-uploads3.zip
1118.433 (3) backup_2020-07-23-0326_AWordPressSite_b56b34ce4264-uploads3.zip: existing size: 0
1118.435 (3) Remote send upload: backup_2020-07-23-0326_AWordPressSite_b56b34ce4264-uploads3.zip (chunks: 65, of size: 262144) -> remotesend://http://obd.490.myftpupload.com/backup_2020-07-23-0326_AWordPressSite_b56b34ce4264-uploads3.zip (0)
1118.865 (3) Remotesend chunked upload: 1.5 % uploaded (1)
1119.286 (3) Remotesend chunked upload: 3.1 % uploaded (2)
1119.692 (3) Remotesend chunked upload: 4.6 % uploaded (3)
1120.154 (3) Remotesend chunked upload: 6.2 % uploaded (4)
1120.970 (3) Remotesend chunked upload: 7.7 % uploaded (5)
1121.410 (3) Remotesend chunked upload: 9.3 % uploaded (6)
1121.832 (3) Remotesend chunked upload: 10.8 % uploaded (7)
1122.246 (3) Remotesend chunked upload: 12.4 % uploaded (8)
1122.660 (3) Remotesend chunked upload: 13.9 % uploaded (9)
1123.097 (3) Remotesend chunked upload: 15.5 % uploaded (10)
1123.708 (3) Remotesend chunked upload: 17 % uploaded (11)
1124.158 (3) Remotesend chunked upload: 18.6 % uploaded (12)
1124.561 (3) Remotesend chunked upload: 20.1 % uploaded (13)
1124.992 (3) Remotesend chunked upload: 21.7 % uploaded (14)
1125.396 (3) Remotesend chunked upload: 23.2 % uploaded (15)
1125.830 (3) Remotesend chunked upload: 24.8 % uploaded (16)
1126.323 (3) Remotesend chunked upload: 26.3 % uploaded (17)
1127.150 (3) Remotesend chunked upload: 27.9 % uploaded (18)
1127.594 (3) Remotesend chunked upload: 29.4 % uploaded (19)
1127.996 (3) Remotesend chunked upload: 31 % uploaded (20)
1128.432 (3) Remotesend chunked upload: 32.5 % uploaded (21)
1128.841 (3) Remotesend chunked upload: 34.1 % uploaded (22)
1129.243 (3) Remotesend chunked upload: 35.6 % uploaded (23)
1129.689 (3) Remotesend chunked upload: 37.2 % uploaded (24)
1130.112 (3) Remotesend chunked upload: 38.7 % uploaded (25)
1130.524 (3) Remotesend chunked upload: 40.2 % uploaded (26)
1130.922 (3) Remotesend chunked upload: 41.8 % uploaded (27)
1131.345 (3) Remotesend chunked upload: 43.3 % uploaded (28)
1131.766 (3) Remotesend chunked upload: 44.9 % uploaded (29)
1132.160 (3) Remotesend chunked upload: 46.4 % uploaded (30)
1132.618 (3) Remotesend chunked upload: 48 % uploaded (31)
1133.035 (3) Remotesend chunked upload: 49.5 % uploaded (32)
1133.471 (3) Remotesend chunked upload: 51.1 % uploaded (33)
1133.906 (3) Remotesend chunked upload: 52.6 % uploaded (34)
1134.320 (3) Remotesend chunked upload: 54.2 % uploaded (35)
1134.736 (3) Remotesend chunked upload: 55.7 % uploaded (36)
1135.545 (3) Remotesend chunked upload: 57.3 % uploaded (37)
1136.016 (3) Remotesend chunked upload: 58.8 % uploaded (38)
1136.449 (3) Remotesend chunked upload: 60.4 % uploaded (39)
1136.851 (3) Remotesend chunked upload: 61.9 % uploaded (40)
1137.288 (3) Remotesend chunked upload: 63.5 % uploaded (41)
1137.690 (3) Remotesend chunked upload: 65 % uploaded (42)
1138.157 (3) Remotesend chunked upload: 66.6 % uploaded (43)
1138.560 (3) Remotesend chunked upload: 68.1 % uploaded (44)
1138.952 (3) Remotesend chunked upload: 69.7 % uploaded (45)
1139.348 (3) Remotesend chunked upload: 71.2 % uploaded (46)
1139.750 (3) Remotesend chunked upload: 72.8 % uploaded (47)
1140.158 (3) Remotesend chunked upload: 74.3 % uploaded (48)
1140.583 (3) Remotesend chunked upload: 75.9 % uploaded (49)
1141.606 (3) Remotesend chunked upload: 77.4 % uploaded (50)
1142.057 (3) Remotesend chunked upload: 79 % uploaded (51)
1142.467 (3) Remotesend chunked upload: 80.5 % uploaded (52)
1142.869 (3) Remotesend chunked upload: 82 % uploaded (53)
1143.279 (3) Remotesend chunked upload: 83.6 % uploaded (54)
1143.733 (3) Remotesend chunked upload: 85.1 % uploaded (55)
1144.179 (3) Remotesend chunked upload: 86.7 % uploaded (56)
1144.635 (3) Remotesend chunked upload: 88.2 % uploaded (57)
1145.071 (3) Remotesend chunked upload: 89.8 % uploaded (58)
1145.498 (3) Remotesend chunked upload: 91.3 % uploaded (59)
1145.909 (3) Remotesend chunked upload: 92.9 % uploaded (60)
1146.318 (3) Remotesend chunked upload: 94.4 % uploaded (61)
1146.727 (3) Remotesend chunked upload: 96 % uploaded (62)
1147.177 (3) Remotesend chunked upload: 97.5 % uploaded (63)
1147.673 (3) Remotesend chunked upload: 99.1 % uploaded (64)
1148.097 (3) Remotesend chunked upload: 100 % uploaded (65)
1148.100 (3) Remote send upload: success
1148.102 (3) Recording as successfully uploaded: backup_2020-07-23-0326_AWordPressSite_b56b34ce4264-uploads3.zip (3faee1445b9c6999884e30853e03652a)
1148.106 (3) Deleting local file: backup_2020-07-23-0326_AWordPressSite_b56b34ce4264-uploads3.zip: skipped: user has unchecked updraft_delete_local option
1148.107 (3) remotesend upload : attempt: backup_2020-07-23-0326_AWordPressSite_b56b34ce4264-others.zip
1148.480 (3) backup_2020-07-23-0326_AWordPressSite_b56b34ce4264-others.zip: existing size: 0
1148.482 (3) Remote send upload: backup_2020-07-23-0326_AWordPressSite_b56b34ce4264-others.zip (chunks: 8, of size: 262144) -> remotesend://http://obd.490.myftpupload.com/backup_2020-07-23-0326_AWordPressSite_b56b34ce4264-others.zip (0)
1148.905 (3) Remotesend chunked upload: 12.5 % uploaded (1)
1149.351 (3) Remotesend chunked upload: 25 % uploaded (2)
1149.756 (3) Remotesend chunked upload: 37.5 % uploaded (3)
1150.202 (3) Remotesend chunked upload: 50.1 % uploaded (4)
1150.610 (3) Remotesend chunked upload: 62.6 % uploaded (5)
1151.038 (3) Remotesend chunked upload: 75.1 % uploaded (6)
1151.484 (3) Remotesend chunked upload: 87.6 % uploaded (7)
1151.887 (3) Remotesend chunked upload: 100 % uploaded (8)
1151.889 (3) Remote send upload: success
1151.892 (3) Recording as successfully uploaded: backup_2020-07-23-0326_AWordPressSite_b56b34ce4264-others.zip (8b92ddff38e4725078611fba760c9ed1)
1151.896 (3) Deleting local file: backup_2020-07-23-0326_AWordPressSite_b56b34ce4264-others.zip: skipped: user has unchecked updraft_delete_local option
1151.897 (3) remotesend upload : attempt: backup_2020-07-23-0326_AWordPressSite_b56b34ce4264-db.gz
1152.207 (3) backup_2020-07-23-0326_AWordPressSite_b56b34ce4264-db.gz: existing size: 0
1152.209 (3) Remote send upload: backup_2020-07-23-0326_AWordPressSite_b56b34ce4264-db.gz (chunks: 1, of size: 262144) -> remotesend://http://obd.490.myftpupload.com/backup_2020-07-23-0326_AWordPressSite_b56b34ce4264-db.gz (0)
1152.618 (3) Remotesend chunked upload: 100 % uploaded (1)
1152.621 (3) Remote send upload: success
1152.624 (3) Recording as successfully uploaded: backup_2020-07-23-0326_AWordPressSite_b56b34ce4264-db.gz (2d8225e285f37ae228ed01257ca77f4d)
1152.628 (3) Deleting local file: backup_2020-07-23-0326_AWordPressSite_b56b34ce4264-db.gz: skipped: user has unchecked updraft_delete_local option
1152.629 (3) Prune old backups from local store: skipping, as this was a remote send operation
1152.630 (3) Resume backup (b56b34ce4264, 3): finish run
1152.632 (3) There were no errors in the uploads, so the 'resume' event (4) is being unscheduled
1152.636 (3) The backup apparently succeeded and is now complete
1152.637 (3) No email will/can be sent - the user has not configured an email address.
1152.638 (3) The backup apparently succeeded and is now complete.. To complete your migration/clone, you should now log in to the remote site and restore the backup set.
